#
# There is insufficient memory for the Java Runtime Environment to continue.
# Native memory allocation (mmap) failed to map 196608000 bytes for committing reserved memory.
# Possible reasons:
#   The system is out of physical RAM or swap space
#   In 32 bit mode, the process size limit was hit
# Possible solutions:
#   Reduce memory load on the system
#   Increase physical memory or swap space
#   Check if swap backing store is full
#   Use 64 bit Java on a 64 bit OS
#   Decrease Java heap size (-Xmx/-Xms)
#   Decrease number of Java threads
#   Decrease Java thread stack sizes (-Xss)
#   Set larger code cache with -XX:ReservedCodeCacheSize=
# This output file may be truncated or incomplete.
#
#  Out of Memory Error (os_linux.cpp:2627), pid=13798, tid=140702495872768
#
# JRE version: Java(TM) SE Runtime Environment (8.0_74-b02) (build 1.8.0_74-b02)
# Java VM: Java HotSpot(TM) 64-Bit Server VM (25.74-b02 mixed mode linux-amd64 compressed oops)
# Failed to write core dump. Core dumps have been disabled. To enable core dumping, try "ulimit -c unlimited" before starting Java again
#

---------------  T H R E A D  ---------------

Current thread (0x00007ff7f0078000):  VMThread [stack: 0x00007ff7da391000,0x00007ff7da492000] [id=13808]

Stack: [0x00007ff7da391000,0x00007ff7da492000],  sp=0x00007ff7da4902a0,  free space=1020k
Native frames: (J=compiled Java code, j=interpreted, Vv=VM code, C=native code)
V  [libjvm.so+0xaba7ea]  VMError::report_and_die()+0x2ba
V  [libjvm.so+0x4f9e3b]  report_vm_out_of_memory(char const*, int, unsigned long, VMErrorType, char const*)+0x8b
V  [libjvm.so+0x91b613]  os::Linux::commit_memory_impl(char*, unsigned long, bool)+0x103
V  [libjvm.so+0x91bb69]  os::pd_commit_memory(char*, unsigned long, unsigned long, bool)+0x29
V  [libjvm.so+0x915e6a]  os::commit_memory(char*, unsigned long, unsigned long, bool)+0x2a
V  [libjvm.so+0x989543]  PSVirtualSpace::expand_by(unsigned long)+0x53
V  [libjvm.so+0x979e30]  PSOldGen::expand(unsigned long)+0x170
V  [libjvm.so+0x97a03b]  PSOldGen::resize(unsigned long)+0x1cb
V  [libjvm.so+0x981d11]  PSParallelCompact::invoke_no_policy(bool)+0x991
V  [libjvm.so+0x98766d]  PSScavenge::invoke()+0x1ad
V  [libjvm.so+0x93f300]  ParallelScavengeHeap::failed_mem_allocate(unsigned long)+0x70
V  [libjvm.so+0xabc207]  VM_ParallelGCFailedAllocation::doit()+0x97
V  [libjvm.so+0xac3c35]  VM_Operation::evaluate()+0x55
V  [libjvm.so+0xac200a]  VMThread::evaluate_operation(VM_Operation*)+0xba
V  [libjvm.so+0xac238e]  VMThread::loop()+0x1ce
V  [libjvm.so+0xac2800]  VMThread::run()+0x70
V  [libjvm.so+0x91d9d8]  java_start(Thread*)+0x108

VM_Operation (0x00007ff7d948ec60): ParallelGCFailedAllocation, mode: safepoint, requested by thread 0x00007ff7f01f7000


---------------  P R O C E S S  ---------------

Java Threads: ( => current thread )
  0x00007ff7f01f9000 JavaThread "pool-2-thread-4" [_thread_blocked, id=13821, stack(0x00007ff7d928f000,0x00007ff7d9390000)]
  0x00007ff7f01f7000 JavaThread "pool-2-thread-3" [_thread_blocked, id=13820, stack(0x00007ff7d9390000,0x00007ff7d9491000)]
  0x00007ff7f01f5800 JavaThread "pool-2-thread-2" [_thread_blocked, id=13819, stack(0x00007ff7d9491000,0x00007ff7d9592000)]
  0x00007ff7f01f4800 JavaThread "pool-3-thread-1" [_thread_blocked, id=13818, stack(0x00007ff7d9592000,0x00007ff7d9693000)]
  0x00007ff7f01f2000 JavaThread "pool-2-thread-1" [_thread_blocked, id=13817, stack(0x00007ff7d9693000,0x00007ff7d9794000)]
  0x00007ff7f00c0800 JavaThread "Service Thread" daemon [_thread_blocked, id=13815, stack(0x00007ff7d99b2000,0x00007ff7d9ab3000)]
  0x00007ff7f00bd000 JavaThread "C1 CompilerThread2" daemon [_thread_blocked, id=13814, stack(0x00007ff7d9ab3000,0x00007ff7d9bb4000)]
  0x00007ff7f00bb800 JavaThread "C2 CompilerThread1" daemon [_thread_blocked, id=13813, stack(0x00007ff7d9bb4000,0x00007ff7d9cb5000)]
  0x00007ff7f00b8800 JavaThread "C2 CompilerThread0" daemon [_thread_blocked, id=13812, stack(0x00007ff7d9cb5000,0x00007ff7d9db6000)]
  0x00007ff7f00b7000 JavaThread "Signal Dispatcher" daemon [_thread_blocked, id=13811, stack(0x00007ff7d9db6000,0x00007ff7d9eb7000)]
  0x00007ff7f0084000 JavaThread "Finalizer" daemon [_thread_blocked, id=13810, stack(0x00007ff7da18f000,0x00007ff7da290000)]
  0x00007ff7f007f800 JavaThread "Reference Handler" daemon [_thread_blocked, id=13809, stack(0x00007ff7da290000,0x00007ff7da391000)]
  0x00007ff7f000a000 JavaThread "main" [_thread_blocked, id=13803, stack(0x00007ff7f7ab6000,0x00007ff7f7bb7000)]

Other Threads:
=>0x00007ff7f0078000 VMThread [stack: 0x00007ff7da391000,0x00007ff7da492000] [id=13808]
  0x00007ff7f00c3000 WatcherThread [stack: 0x00007ff7d98b1000,0x00007ff7d99b2000] [id=13816]

VM state:at safepoint (normal execution)

VM Mutex/Monitor currently owned by a thread:  ([mutex/lock_event])
[0x00007ff7f0005f90] ExpandHeap_lock - owner thread: 0x00007ff7f0078000
[0x00007ff7f0006610] Threads_lock - owner thread: 0x00007ff7f0078000
[0x00007ff7f0006b10] Heap_lock - owner thread: 0x00007ff7f01f7000

Heap:
 PSYoungGen      total 1194496K, used 11863K [0x000000076ab00000, 0x00000007c0000000, 0x00000007c0000000)
  eden space 994304K, 0% used [0x000000076ab00000,0x000000076ab00000,0x00000007a7600000)
  from space 200192K, 5% used [0x00000007b3c80000,0x00000007b4815dd0,0x00000007c0000000)
  to   space 201728K, 0% used [0x00000007a7600000,0x00000007a7600000,0x00000007b3b00000)
 ParOldGen       total 666624K, used 666193K [0x00000006c0000000, 0x00000006e8b00000, 0x000000076ab00000)
  object space 666624K, 99% used [0x00000006c0000000,0x00000006e8a94660,0x00000006e8b00000)
 Metaspace       used 6631K, capacity 7320K, committed 7680K, reserved 1056768K
  class space    used 619K, capacity 656K, committed 768K, reserved 1048576K

Card table byte_map: [0x00007ff7f406a000,0x00007ff7f486b000] byte_map_base: 0x00007ff7f0a6a000

Marking Bits: (ParMarkBitMap*) 0x00007ff7f6f87260
 Begin Bits: [0x00007ff7c4000000, 0x00007ff7c8000000)
 End Bits:   [0x00007ff7c8000000, 0x00007ff7cc000000)

Polling page: 0x00007ff7f7bd4000

CodeCache: size=245760Kb used=12904Kb max_used=16373Kb free=232855Kb
 bounds [0x00007ff7e1000000, 0x00007ff7e2010000, 0x00007ff7f0000000]
 total_blobs=2955 nmethods=2684 adapters=183
 compilation: enabled

Compilation events (10 events):
Event: 80.673 Thread 0x00007ff7f00bb800 nmethod 3559% 0x00007ff7e1635810 code [0x00007ff7e1635960, 0x00007ff7e1635b78]
Event: 80.673 Thread 0x00007ff7f00bb800 3532       4       com.android.dx.ssa.SetFactory::makeInterferenceSet (26 bytes)
Event: 80.675 Thread 0x00007ff7f00bb800 nmethod 3532 0x00007ff7e172aa90 code [0x00007ff7e172ac00, 0x00007ff7e172af38]
Event: 80.675 Thread 0x00007ff7f00bb800 3545       4       com.android.dx.ssa.SetFactory::makeLivenessSet (26 bytes)
Event: 80.678 Thread 0x00007ff7f00bb800 nmethod 3545 0x00007ff7e164f150 code [0x00007ff7e164f2c0, 0x00007ff7e164f618]
Event: 80.678 Thread 0x00007ff7f00bb800 3552       4       com.android.dx.ssa.back.InterferenceGraph::mergeInterferenceSet (29 bytes)
Event: 80.687 Thread 0x00007ff7f00bb800 nmethod 3552 0x00007ff7e19dc710 code [0x00007ff7e19dc8c0, 0x00007ff7e19dd1f8]
Event: 80.687 Thread 0x00007ff7f00bb800 3558 %     4       com.android.dx.ssa.DomFront::<init> @ 35 (60 bytes)
Event: 80.689 Thread 0x00007ff7f00bb800 nmethod 3558% 0x00007ff7e1763a90 code [0x00007ff7e1763c00, 0x00007ff7e1763e98]
Event: 80.689 Thread 0x00007ff7f00bb800 3539       4       com.android.dx.ssa.SsaBasicBlock::addLiveOut (32 bytes)

GC Heap History (10 events):
Event: 29.068 GC heap after
Heap after GC invocations=15 (full 3):
 PSYoungGen      total 1103360K, used 106047K [0x000000076ab00000, 0x00000007b7c80000, 0x00000007c0000000)
  eden space 971264K, 0% used [0x000000076ab00000,0x000000076ab00000,0x00000007a5f80000)
  from space 132096K, 80% used [0x00000007af800000,0x00000007b5f8fe88,0x00000007b7900000)
  to   space 145920K, 0% used [0x00000007a5f80000,0x00000007a5f80000,0x00000007aee00000)
 ParOldGen       total 353792K, used 322087K [0x00000006c0000000, 0x00000006d5980000, 0x000000076ab00000)
  object space 353792K, 91% used [0x00000006c0000000,0x00000006d3a89e30,0x00000006d5980000)
 Metaspace       used 6616K, capacity 7320K, committed 7680K, reserved 1056768K
  class space    used 617K, capacity 656K, committed 768K, reserved 1048576K
}
Event: 29.068 GC heap before
{Heap before GC invocations=16 (full 4):
 PSYoungGen      total 1103360K, used 106047K [0x000000076ab00000, 0x00000007b7c80000, 0x00000007c0000000)
  eden space 971264K, 0% used [0x000000076ab00000,0x000000076ab00000,0x00000007a5f80000)
  from space 132096K, 80% used [0x00000007af800000,0x00000007b5f8fe88,0x00000007b7900000)
  to   space 145920K, 0% used [0x00000007a5f80000,0x00000007a5f80000,0x00000007aee00000)
 ParOldGen       total 353792K, used 322087K [0x00000006c0000000, 0x00000006d5980000, 0x000000076ab00000)
  object space 353792K, 91% used [0x00000006c0000000,0x00000006d3a89e30,0x00000006d5980000)
 Metaspace       used 6616K, capacity 7320K, committed 7680K, reserved 1056768K
  class space    used 617K, capacity 656K, committed 768K, reserved 1048576K
Event: 30.831 GC heap after
Heap after GC invocations=16 (full 4):
 PSYoungGen      total 1103360K, used 72860K [0x000000076ab00000, 0x00000007b7c80000, 0x00000007c0000000)
  eden space 971264K, 0% used [0x000000076ab00000,0x000000076ab00000,0x00000007a5f80000)
  from space 132096K, 55% used [0x00000007af800000,0x00000007b3f272a8,0x00000007b7900000)
  to   space 145920K, 0% used [0x00000007a5f80000,0x00000007a5f80000,0x00000007aee00000)
 ParOldGen       total 498176K, used 353757K [0x00000006c0000000, 0x00000006de680000, 0x000000076ab00000)
  object space 498176K, 71% used [0x00000006c0000000,0x00000006d59774a8,0x00000006de680000)
 Metaspace       used 6616K, capacity 7320K, committed 7680K, reserved 1056768K
  class space    used 617K, capacity 656K, committed 768K, reserved 1048576K
}
Event: 34.919 GC heap before
{Heap before GC invocations=17 (full 4):
 PSYoungGen      total 1103360K, used 1044124K [0x000000076ab00000, 0x00000007b7c80000, 0x00000007c0000000)
  eden space 971264K, 100% used [0x000000076ab00000,0x00000007a5f80000,0x00000007a5f80000)
  from space 132096K, 55% used [0x00000007af800000,0x00000007b3f272a8,0x00000007b7900000)
  to   space 145920K, 0% used [0x00000007a5f80000,0x00000007a5f80000,0x00000007aee00000)
 ParOldGen       total 498176K, used 353757K [0x00000006c0000000, 0x00000006de680000, 0x000000076ab00000)
  object space 498176K, 71% used [0x00000006c0000000,0x00000006d59774a8,0x00000006de680000)
 Metaspace       used 6630K, capacity 7320K, committed 7680K, reserved 1056768K
  class space    used 619K, capacity 656K, committed 768K, reserved 1048576K
Event: 42.468 GC heap after
Heap after GC invocations=17 (full 4):
 PSYoungGen      total 1117184K, used 145897K [0x000000076ab00000, 0x00000007c0000000, 0x00000007c0000000)
  eden space 971264K, 0% used [0x000000076ab00000,0x000000076ab00000,0x00000007a5f80000)
  from space 145920K, 99% used [0x00000007a5f80000,0x00000007aedfa768,0x00000007aee00000)
  to   space 200192K, 0% used [0x00000007b3c80000,0x00000007b3c80000,0x00000007c0000000)
 ParOldGen       total 498176K, used 432555K [0x00000006c0000000, 0x00000006de680000, 0x000000076ab00000)
  object space 498176K, 86% used [0x00000006c0000000,0x00000006da66af18,0x00000006de680000)
 Metaspace       used 6630K, capacity 7320K, committed 7680K, reserved 1056768K
  class space    used 619K, capacity 656K, committed 768K, reserved 1048576K
}
Event: 42.468 GC heap before
{Heap before GC invocations=18 (full 5):
 PSYoungGen      total 1117184K, used 145897K [0x000000076ab00000, 0x00000007c0000000, 0x00000007c0000000)
  eden space 971264K, 0% used [0x000000076ab00000,0x000000076ab00000,0x00000007a5f80000)
  from space 145920K, 99% used [0x00000007a5f80000,0x00000007aedfa768,0x00000007aee00000)
  to   space 200192K, 0% used [0x00000007b3c80000,0x00000007b3c80000,0x00000007c0000000)
 ParOldGen       total 498176K, used 432555K [0x00000006c0000000, 0x00000006de680000, 0x000000076ab00000)
  object space 498176K, 86% used [0x00000006c0000000,0x00000006da66af18,0x00000006de680000)
 Metaspace       used 6630K, capacity 7320K, committed 7680K, reserved 1056768K
  class space    used 619K, capacity 656K, committed 768K, reserved 1048576K
Event: 65.363 GC heap after
Heap after GC invocations=18 (full 5):
 PSYoungGen      total 1117184K, used 78565K [0x000000076ab00000, 0x00000007c0000000, 0x00000007c0000000)
  eden space 971264K, 0% used [0x000000076ab00000,0x000000076ab00000,0x00000007a5f80000)
  from space 145920K, 53% used [0x00000007a5f80000,0x00000007aac395a8,0x00000007aee00000)
  to   space 200192K, 0% used [0x00000007b3c80000,0x00000007b3c80000,0x00000007c0000000)
 ParOldGen       total 666624K, used 497719K [0x00000006c0000000, 0x00000006e8b00000, 0x000000076ab00000)
  object space 666624K, 74% used [0x00000006c0000000,0x00000006de60df98,0x00000006e8b00000)
 Metaspace       used 6630K, capacity 7320K, committed 7680K, reserved 1056768K
  class space    used 619K, capacity 656K, committed 768K, reserved 1048576K
}
Event: 81.954 GC heap before
{Heap before GC invocations=19 (full 5):
 PSYoungGen      total 1117184K, used 1049829K [0x000000076ab00000, 0x00000007c0000000, 0x00000007c0000000)
  eden space 971264K, 100% used [0x000000076ab00000,0x00000007a5f80000,0x00000007a5f80000)
  from space 145920K, 53% used [0x00000007a5f80000,0x00000007aac395a8,0x00000007aee00000)
  to   space 200192K, 0% used [0x00000007b3c80000,0x00000007b3c80000,0x00000007c0000000)
 ParOldGen       total 666624K, used 497719K [0x00000006c0000000, 0x00000006e8b00000, 0x000000076ab00000)
  object space 666624K, 74% used [0x00000006c0000000,0x00000006de60df98,0x00000006e8b00000)
 Metaspace       used 6631K, capacity 7320K, committed 7680K, reserved 1056768K
  class space    used 619K, capacity 656K, committed 768K, reserved 1048576K
Event: 106.169 GC heap after
Heap after GC invocations=19 (full 5):
 PSYoungGen      total 1194496K, used 108325K [0x000000076ab00000, 0x00000007c0000000, 0x00000007c0000000)
  eden space 994304K, 0% used [0x000000076ab00000,0x000000076ab00000,0x00000007a7600000)
  from space 200192K, 54% used [0x00000007b3c80000,0x00000007ba649740,0x00000007c0000000)
  to   space 201728K, 0% used [0x00000007a7600000,0x00000007a7600000,0x00000007b3b00000)
 ParOldGen       total 666624K, used 576721K [0x00000006c0000000, 0x00000006e8b00000, 0x000000076ab00000)
  object space 666624K, 86% used [0x00000006c0000000,0x00000006e33345d8,0x00000006e8b00000)
 Metaspace       used 6631K, capacity 7320K, committed 7680K, reserved 1056768K
  class space    used 619K, capacity 656K, committed 768K, reserved 1048576K
}
Event: 106.869 GC heap before
{Heap before GC invocations=20 (full 6):
 PSYoungGen      total 1194496K, used 108325K [0x000000076ab00000, 0x00000007c0000000, 0x00000007c0000000)
  eden space 994304K, 0% used [0x000000076ab00000,0x000000076ab00000,0x00000007a7600000)
  from space 200192K, 54% used [0x00000007b3c80000,0x00000007ba649740,0x00000007c0000000)
  to   space 201728K, 0% used [0x00000007a7600000,0x00000007a7600000,0x00000007b3b00000)
 ParOldGen       total 666624K, used 576721K [0x00000006c0000000, 0x00000006e8b00000, 0x000000076ab00000)
  object space 666624K, 86% used [0x00000006c0000000,0x00000006e33345d8,0x00000006e8b00000)
 Metaspace       used 6631K, capacity 7320K, committed 7680K, reserved 1056768K
  class space    used 619K, capacity 656K, committed 768K, reserved 1048576K

Deoptimization events (10 events):
Event: 75.238 Thread 0x00007ff7f01f9000 Uncommon trap: reason=class_check action=maybe_recompile pc=0x00007ff7e1b39478 method=com.android.dx.ssa.SsaConverter.placePhiFunctions(Lcom/android/dx/ssa/SsaMethod;Lcom/android/dx/ssa/LocalVariableInfo;I)V @ 257
Event: 75.269 Thread 0x00007ff7f01f7000 Uncommon trap: reason=class_check action=maybe_recompile pc=0x00007ff7e1a4ced4 method=com.android.dx.ssa.back.InterferenceGraph.mergeInterferenceSet(ILcom/android/dx/util/IntSet;)V @ 20
Event: 75.269 Thread 0x00007ff7f01f7000 Uncommon trap: reason=class_check action=maybe_recompile pc=0x00007ff7e1b25c84 method=com.android.dx.util.BitIntSet.merge(Lcom/android/dx/util/IntSet;)V @ 1
Event: 75.270 Thread 0x00007ff7f01f7000 Uncommon trap: reason=class_check action=maybe_recompile pc=0x00007ff7e1a4ced4 method=com.android.dx.ssa.back.InterferenceGraph.mergeInterferenceSet(ILcom/android/dx/util/IntSet;)V @ 20
Event: 75.270 Thread 0x00007ff7f01f7000 Uncommon trap: reason=class_check action=maybe_recompile pc=0x00007ff7e1b25c84 method=com.android.dx.util.BitIntSet.merge(Lcom/android/dx/util/IntSet;)V @ 1
Event: 75.270 Thread 0x00007ff7f01f7000 Uncommon trap: reason=class_check action=maybe_recompile pc=0x00007ff7e1a4ced4 method=com.android.dx.ssa.back.InterferenceGraph.mergeInterferenceSet(ILcom/android/dx/util/IntSet;)V @ 20
Event: 75.270 Thread 0x00007ff7f01f7000 Uncommon trap: reason=class_check action=maybe_recompile pc=0x00007ff7e1b25c84 method=com.android.dx.util.BitIntSet.merge(Lcom/android/dx/util/IntSet;)V @ 1
Event: 75.273 Thread 0x00007ff7f01f7000 Uncommon trap: reason=class_check action=maybe_recompile pc=0x00007ff7e1a4ced4 method=com.android.dx.ssa.back.InterferenceGraph.mergeInterferenceSet(ILcom/android/dx/util/IntSet;)V @ 20
Event: 75.273 Thread 0x00007ff7f01f7000 Uncommon trap: reason=class_check action=maybe_recompile pc=0x00007ff7e1b25c84 method=com.android.dx.util.BitIntSet.merge(Lcom/android/dx/util/IntSet;)V @ 1
Event: 75.305 Thread 0x00007ff7f01f9000 Uncommon trap: reason=predicate action=maybe_recompile pc=0x00007ff7e1e5612c method=com.android.dx.ssa.back.InterferenceGraph.<init>(I)V @ 23

Internal exceptions (7 events):
Event: 0.023 Thread 0x00007ff7f000a000 Exception <a 'java/lang/NoSuchMethodError': Method sun.misc.Unsafe.defineClass(Ljava/lang/String;[BII)Ljava/lang/Class; name or signature does not match> (0x000000076ab07cc0) thrown at [/HUDSON3/workspace/8-2-build-linux-amd64/jdk8u74/6087/hotspot/src/sha
Event: 0.023 Thread 0x00007ff7f000a000 Exception <a 'java/lang/NoSuchMethodError': Method sun.misc.Unsafe.prefetchRead(Ljava/lang/Object;J)V name or signature does not match> (0x000000076ab07fa8) thrown at [/HUDSON3/workspace/8-2-build-linux-amd64/jdk8u74/6087/hotspot/src/share/vm/prims/jni.cp
Event: 1.279 Thread 0x00007ff7f01f7000 Implicit null exception at 0x00007ff7e13cb0f7 to 0x00007ff7e13cde85
Event: 1.355 Thread 0x00007ff7f01f5800 Implicit null exception at 0x00007ff7e13fcc98 to 0x00007ff7e13fce7d
Event: 1.422 Thread 0x00007ff7f01f9000 Exception <a 'java/lang/ArrayIndexOutOfBoundsException': 18> (0x000000076ef597d8) thrown at [/HUDSON3/workspace/8-2-build-linux-amd64/jdk8u74/6087/hotspot/src/share/vm/interpreter/interpreterRuntime.cpp, line 366]
Event: 1.422 Thread 0x00007ff7f01f9000 Exception <a 'java/lang/ArrayIndexOutOfBoundsException': 145> (0x000000076ef5b358) thrown at [/HUDSON3/workspace/8-2-build-linux-amd64/jdk8u74/6087/hotspot/src/share/vm/interpreter/interpreterRuntime.cpp, line 366]
Event: 1.422 Thread 0x00007ff7f01f9000 Exception <a 'java/lang/ArrayIndexOutOfBoundsException': 40> (0x000000076ef5c640) thrown at [/HUDSON3/workspace/8-2-build-linux-amd64/jdk8u74/6087/hotspot/src/share/vm/interpreter/interpreterRuntime.cpp, line 366]

Events (10 events):
Event: 75.497 Thread 0x00007ff7f01f2000 DEOPT UNPACKING pc=0x00007ff7e1047633 sp=0x00007ff7d9791bf8 mode 0
Event: 75.497 Thread 0x00007ff7f01f2000 DEOPT PACKING pc=0x00007ff7e139f46c sp=0x00007ff7d9791ea0
Event: 75.497 Thread 0x00007ff7f01f2000 DEOPT UNPACKING pc=0x00007ff7e1047633 sp=0x00007ff7d9791bf8 mode 0
Event: 75.497 Thread 0x00007ff7f01f2000 DEOPT PACKING pc=0x00007ff7e139f46c sp=0x00007ff7d9791ea0
Event: 75.497 Thread 0x00007ff7f01f2000 DEOPT UNPACKING pc=0x00007ff7e1047633 sp=0x00007ff7d9791bf8 mode 0
Event: 75.498 Thread 0x00007ff7f01f2000 DEOPT PACKING pc=0x00007ff7e139f46c sp=0x00007ff7d9791ea0
Event: 75.498 Thread 0x00007ff7f01f2000 DEOPT UNPACKING pc=0x00007ff7e1047633 sp=0x00007ff7d9791bf8 mode 0
Event: 75.498 Thread 0x00007ff7f01f2000 DEOPT PACKING pc=0x00007ff7e139f46c sp=0x00007ff7d9791ea0
Event: 75.498 Thread 0x00007ff7f01f2000 DEOPT UNPACKING pc=0x00007ff7e1047633 sp=0x00007ff7d9791bf8 mode 0
Event: 80.699 Executing VM operation: ParallelGCFailedAllocation


Dynamic libraries:
00400000-00401000 r-xp 00000000 08:09 15728845                           /home/nikunj/Downloads/jdk1.8.0_74/bin/java
00600000-00601000 rw-p 00000000 08:09 15728845                           /home/nikunj/Downloads/jdk1.8.0_74/bin/java
015ea000-0160b000 rw-p 00000000 00:00 0                                  [heap]
6c0000000-6e8b00000 rw-p 00000000 00:00 0 
6f4680000-76ab00000 ---p 00000000 00:00 0 
76ab00000-7c0000000 rw-p 00000000 00:00 0 
7c0000000-7c00c0000 rw-p 00000000 00:00 0 
7c00c0000-800000000 ---p 00000000 00:00 0 
7ff78c000000-7ff78c027000 rw-p 00000000 00:00 0 
7ff78c027000-7ff790000000 ---p 00000000 00:00 0 
7ff790000000-7ff790021000 rw-p 00000000 00:00 0 
7ff790021000-7ff794000000 ---p 00000000 00:00 0 
7ff794000000-7ff794021000 rw-p 00000000 00:00 0 
7ff794021000-7ff798000000 ---p 00000000 00:00 0 
7ff798000000-7ff798039000 rw-p 00000000 00:00 0 
7ff798039000-7ff79c000000 ---p 00000000 00:00 0 
7ff79c000000-7ff79c021000 rw-p 00000000 00:00 0 
7ff79c021000-7ff7a0000000 ---p 00000000 00:00 0 
7ff7a0000000-7ff7a002b000 rw-p 00000000 00:00 0 
7ff7a002b000-7ff7a4000000 ---p 00000000 00:00 0 
7ff7a4000000-7ff7a4831000 rw-p 00000000 00:00 0 
7ff7a4831000-7ff7a8000000 ---p 00000000 00:00 0 
7ff7a8000000-7ff7a8021000 rw-p 00000000 00:00 0 
7ff7a8021000-7ff7ac000000 ---p 00000000 00:00 0 
7ff7ac000000-7ff7ad8f4000 rw-p 00000000 00:00 0 
7ff7ad8f4000-7ff7b0000000 ---p 00000000 00:00 0 
7ff7b0000000-7ff7b1eb9000 rw-p 00000000 00:00 0 
7ff7b1eb9000-7ff7b4000000 ---p 00000000 00:00 0 
7ff7b4000000-7ff7b4021000 rw-p 00000000 00:00 0 
7ff7b4021000-7ff7b8000000 ---p 00000000 00:00 0 
7ff7b8000000-7ff7b8021000 rw-p 00000000 00:00 0 
7ff7b8021000-7ff7bc000000 ---p 00000000 00:00 0 
7ff7bc000000-7ff7bc2af000 rw-p 00000000 00:00 0 
7ff7bc2af000-7ff7c0000000 ---p 00000000 00:00 0 
7ff7c0000000-7ff7c0021000 rw-p 00000000 00:00 0 
7ff7c0021000-7ff7c4000000 ---p 00000000 00:00 0 
7ff7c4000000-7ff7cc000000 rw-p 00000000 00:00 0 
7ff7cc000000-7ff7cc021000 rw-p 00000000 00:00 0 
7ff7cc021000-7ff7d0000000 ---p 00000000 00:00 0 
7ff7d0000000-7ff7d0021000 rw-p 00000000 00:00 0 
7ff7d0021000-7ff7d4000000 ---p 00000000 00:00 0 
7ff7d4000000-7ff7d4021000 rw-p 00000000 00:00 0 
7ff7d4021000-7ff7d8000000 ---p 00000000 00:00 0 
7ff7d928f000-7ff7d9292000 ---p 00000000 00:00 0 
7ff7d9292000-7ff7d9390000 rw-p 00000000 00:00 0 
7ff7d9390000-7ff7d9393000 ---p 00000000 00:00 0 
7ff7d9393000-7ff7d9491000 rw-p 00000000 00:00 0 
7ff7d9491000-7ff7d9494000 ---p 00000000 00:00 0 
7ff7d9494000-7ff7d9592000 rw-p 00000000 00:00 0 
7ff7d9592000-7ff7d9595000 ---p 00000000 00:00 0 
7ff7d9595000-7ff7d9693000 rw-p 00000000 00:00 0 
7ff7d9693000-7ff7d9696000 ---p 00000000 00:00 0 
7ff7d9696000-7ff7d9794000 rw-p 00000000 00:00 0 
7ff7d9794000-7ff7d98b1000 r--s 00bd3000 08:09 23331976                   /home/nikunj/Documents/19_12_2016/app/build/intermediates/transforms/jarMerging/debug/jars/1/1f/combined.jar
7ff7d98b1000-7ff7d98b2000 ---p 00000000 00:00 0 
7ff7d98b2000-7ff7d99b2000 rw-p 00000000 00:00 0 
7ff7d99b2000-7ff7d99b5000 ---p 00000000 00:00 0 
7ff7d99b5000-7ff7d9ab3000 rw-p 00000000 00:00 0 
7ff7d9ab3000-7ff7d9ab6000 ---p 00000000 00:00 0 
7ff7d9ab6000-7ff7d9bb4000 rw-p 00000000 00:00 0 
7ff7d9bb4000-7ff7d9bb7000 ---p 00000000 00:00 0 
7ff7d9bb7000-7ff7d9cb5000 rw-p 00000000 00:00 0 
7ff7d9cb5000-7ff7d9cb8000 ---p 00000000 00:00 0 
7ff7d9cb8000-7ff7d9db6000 rw-p 00000000 00:00 0 
7ff7d9db6000-7ff7d9db9000 ---p 00000000 00:00 0 
7ff7d9db9000-7ff7d9eb7000 rw-p 00000000 00:00 0 
7ff7d9eb7000-7ff7da18f000 r--p 00000000 08:05 5245708                    /usr/lib/locale/locale-archive
7ff7da18f000-7ff7da192000 ---p 00000000 00:00 0 
7ff7da192000-7ff7da290000 rw-p 00000000 00:00 0 
7ff7da290000-7ff7da293000 ---p 00000000 00:00 0 
7ff7da293000-7ff7da391000 rw-p 00000000 00:00 0 
7ff7da391000-7ff7da392000 ---p 00000000 00:00 0 
7ff7da392000-7ff7db6c0000 rw-p 00000000 00:00 0 
7ff7db6c0000-7ff7db800000 ---p 00000000 00:00 0 
7ff7db800000-7ff7dc000000 rw-p 00000000 00:00 0 
7ff7dc000000-7ff7dc021000 rw-p 00000000 00:00 0 
7ff7dc021000-7ff7e0000000 ---p 00000000 00:00 0 
7ff7e0012000-7ff7e0458000 rw-p 00000000 00:00 0 
7ff7e0458000-7ff7e0630000 r--s 03d1d000 08:09 15729003                   /home/nikunj/Downloads/jdk1.8.0_74/jre/lib/rt.jar
7ff7e0630000-7ff7e06a6000 rw-p 00000000 00:00 0 
7ff7e06a6000-7ff7e06a7000 ---p 00000000 00:00 0 
7ff7e06a7000-7ff7e07a7000 rw-p 00000000 00:00 0 
7ff7e07a7000-7ff7e07a8000 ---p 00000000 00:00 0 
7ff7e07a8000-7ff7e08a8000 rw-p 00000000 00:00 0 
7ff7e08a8000-7ff7e08a9000 ---p 00000000 00:00 0 
7ff7e08a9000-7ff7e09a9000 rw-p 00000000 00:00 0 
7ff7e09a9000-7ff7e09aa000 ---p 00000000 00:00 0 
7ff7e09aa000-7ff7e0bf0000 rw-p 00000000 00:00 0 
7ff7e0bf0000-7ff7e1000000 ---p 00000000 00:00 0 
7ff7e1000000-7ff7e2010000 rwxp 00000000 00:00 0 
7ff7e2010000-7ff7f0000000 ---p 00000000 00:00 0 
7ff7f0000000-7ff7f03bf000 rw-p 00000000 00:00 0 
7ff7f03bf000-7ff7f4000000 ---p 00000000 00:00 0 
7ff7f401b000-7ff7f41b0000 rw-p 00000000 00:00 0 
7ff7f41b0000-7ff7f45bf000 ---p 00000000 00:00 0 
7ff7f45bf000-7ff7f486a000 rw-p 00000000 00:00 0 
7ff7f486a000-7ff7f48ac000 rw-p 00000000 00:00 0 
7ff7f48ac000-7ff7f4c2b000 ---p 00000000 00:00 0 
7ff7f4c2b000-7ff7f4c45000 r-xp 00000000 08:09 15729065                   /home/nikunj/Downloads/jdk1.8.0_74/jre/lib/amd64/libzip.so
7ff7f4c45000-7ff7f4e45000 ---p 0001a000 08:09 15729065                   /home/nikunj/Downloads/jdk1.8.0_74/jre/lib/amd64/libzip.so
7ff7f4e45000-7ff7f4e46000 rw-p 0001a000 08:09 15729065                   /home/nikunj/Downloads/jdk1.8.0_74/jre/lib/amd64/libzip.so
7ff7f4e46000-7ff7f4e51000 r-xp 00000000 08:05 4849751                    /lib/x86_64-linux-gnu/libnss_files-2.23.so
7ff7f4e51000-7ff7f5050000 ---p 0000b000 08:05 4849751                    /lib/x86_64-linux-gnu/libnss_files-2.23.so
7ff7f5050000-7ff7f5051000 r--p 0000a000 08:05 4849751                    /lib/x86_64-linux-gnu/libnss_files-2.23.so
7ff7f5051000-7ff7f5052000 rw-p 0000b000 08:05 4849751                    /lib/x86_64-linux-gnu/libnss_files-2.23.so
7ff7f5052000-7ff7f5058000 rw-p 00000000 00:00 0 
7ff7f5058000-7ff7f5063000 r-xp 00000000 08:05 4849748                    /lib/x86_64-linux-gnu/libnss_nis-2.23.so
7ff7f5063000-7ff7f5262000 ---p 0000b000 08:05 4849748                    /lib/x86_64-linux-gnu/libnss_nis-2.23.so
7ff7f5262000-7ff7f5263000 r--p 0000a000 08:05 4849748                    /lib/x86_64-linux-gnu/libnss_nis-2.23.so
7ff7f5263000-7ff7f5264000 rw-p 0000b000 08:05 4849748                    /lib/x86_64-linux-gnu/libnss_nis-2.23.so
7ff7f5264000-7ff7f527a000 r-xp 00000000 08:05 4849689                    /lib/x86_64-linux-gnu/libnsl-2.23.so
7ff7f527a000-7ff7f5479000 ---p 00016000 08:05 4849689                    /lib/x86_64-linux-gnu/libnsl-2.23.so
7ff7f5479000-7ff7f547a000 r--p 00015000 08:05 4849689                    /lib/x86_64-linux-gnu/libnsl-2.23.so
7ff7f547a000-7ff7f547b000 rw-p 00016000 08:05 4849689                    /lib/x86_64-linux-gnu/libnsl-2.23.so
7ff7f547b000-7ff7f547d000 rw-p 00000000 00:00 0 
7ff7f547d000-7ff7f5485000 r-xp 00000000 08:05 4849678                    /lib/x86_64-linux-gnu/libnss_compat-2.23.so
7ff7f5485000-7ff7f5684000 ---p 00008000 08:05 4849678                    /lib/x86_64-linux-gnu/libnss_compat-2.23.so
7ff7f5684000-7ff7f5685000 r--p 00007000 08:05 4849678                    /lib/x86_64-linux-gnu/libnss_compat-2.23.so
7ff7f5685000-7ff7f5686000 rw-p 00008000 08:05 4849678                    /lib/x86_64-linux-gnu/libnss_compat-2.23.so
7ff7f5686000-7ff7f56b0000 r-xp 00000000 08:09 15729029                   /home/nikunj/Downloads/jdk1.8.0_74/jre/lib/amd64/libjava.so
7ff7f56b0000-7ff7f58b0000 ---p 0002a000 08:09 15729029                   /home/nikunj/Downloads/jdk1.8.0_74/jre/lib/amd64/libjava.so
7ff7f58b0000-7ff7f58b2000 rw-p 0002a000 08:09 15729029                   /home/nikunj/Downloads/jdk1.8.0_74/jre/lib/amd64/libjava.so
7ff7f58b2000-7ff7f58bf000 r-xp 00000000 08:09 15729064                   /home/nikunj/Downloads/jdk1.8.0_74/jre/lib/amd64/libverify.so
7ff7f58bf000-7ff7f5abf000 ---p 0000d000 08:09 15729064                   /home/nikunj/Downloads/jdk1.8.0_74/jre/lib/amd64/libverify.so
7ff7f5abf000-7ff7f5ac1000 rw-p 0000d000 08:09 15729064                   /home/nikunj/Downloads/jdk1.8.0_74/jre/lib/amd64/libverify.so
7ff7f5ac1000-7ff7f5ac8000 r-xp 00000000 08:05 4849760                    /lib/x86_64-linux-gnu/librt-2.23.so
7ff7f5ac8000-7ff7f5cc7000 ---p 00007000 08:05 4849760                    /lib/x86_64-linux-gnu/librt-2.23.so
7ff7f5cc7000-7ff7f5cc8000 r--p 00006000 08:05 4849760                    /lib/x86_64-linux-gnu/librt-2.23.so
7ff7f5cc8000-7ff7f5cc9000 rw-p 00007000 08:05 4849760                    /lib/x86_64-linux-gnu/librt-2.23.so
7ff7f5cc9000-7ff7f5dd1000 r-xp 00000000 08:05 4849757                    /lib/x86_64-linux-gnu/libm-2.23.so
7ff7f5dd1000-7ff7f5fd0000 ---p 00108000 08:05 4849757                    /lib/x86_64-linux-gnu/libm-2.23.so
7ff7f5fd0000-7ff7f5fd1000 r--p 00107000 08:05 4849757                    /lib/x86_64-linux-gnu/libm-2.23.so
7ff7f5fd1000-7ff7f5fd2000 rw-p 00108000 08:05 4849757                    /lib/x86_64-linux-gnu/libm-2.23.so
7ff7f5fd2000-7ff7f6c91000 r-xp 00000000 08:09 15729069                   /home/nikunj/Downloads/jdk1.8.0_74/jre/lib/amd64/server/libjvm.so
7ff7f6c91000-7ff7f6e90000 ---p 00cbf000 08:09 15729069                   /home/nikunj/Downloads/jdk1.8.0_74/jre/lib/amd64/server/libjvm.so
7ff7f6e90000-7ff7f6f69000 rw-p 00cbe000 08:09 15729069                   /home/nikunj/Downloads/jdk1.8.0_74/jre/lib/amd64/server/libjvm.so
7ff7f6f69000-7ff7f6fb2000 rw-p 00000000 00:00 0 
7ff7f6fb2000-7ff7f7171000 r-xp 00000000 08:05 4854290                    /lib/x86_64-linux-gnu/libc-2.23.so
7ff7f7171000-7ff7f7371000 ---p 001bf000 08:05 4854290                    /lib/x86_64-linux-gnu/libc-2.23.so
7ff7f7371000-7ff7f7375000 r--p 001bf000 08:05 4854290                    /lib/x86_64-linux-gnu/libc-2.23.so
7ff7f7375000-7ff7f7377000 rw-p 001c3000 08:05 4854290                    /lib/x86_64-linux-gnu/libc-2.23.so
7ff7f7377000-7ff7f737b000 rw-p 00000000 00:00 0 
7ff7f737b000-7ff7f737e000 r-xp 00000000 08:05 4854291                    /lib/x86_64-linux-gnu/libdl-2.23.so
7ff7f737e000-7ff7f757d000 ---p 00003000 08:05 4854291                    /lib/x86_64-linux-gnu/libdl-2.23.so
7ff7f757d000-7ff7f757e000 r--p 00002000 08:05 4854291                    /lib/x86_64-linux-gnu/libdl-2.23.so
7ff7f757e000-7ff7f757f000 rw-p 00003000 08:05 4854291                    /lib/x86_64-linux-gnu/libdl-2.23.so
7ff7f757f000-7ff7f7594000 r-xp 00000000 08:09 15729310                   /home/nikunj/Downloads/jdk1.8.0_74/lib/amd64/jli/libjli.so
7ff7f7594000-7ff7f7794000 ---p 00015000 08:09 15729310                   /home/nikunj/Downloads/jdk1.8.0_74/lib/amd64/jli/libjli.so
7ff7f7794000-7ff7f7795000 rw-p 00015000 08:09 15729310                   /home/nikunj/Downloads/jdk1.8.0_74/lib/amd64/jli/libjli.so
7ff7f7795000-7ff7f77ad000 r-xp 00000000 08:05 4854244                    /lib/x86_64-linux-gnu/libpthread-2.23.so
7ff7f77ad000-7ff7f79ac000 ---p 00018000 08:05 4854244                    /lib/x86_64-linux-gnu/libpthread-2.23.so
7ff7f79ac000-7ff7f79ad000 r--p 00017000 08:05 4854244                    /lib/x86_64-linux-gnu/libpthread-2.23.so
7ff7f79ad000-7ff7f79ae000 rw-p 00018000 08:05 4854244                    /lib/x86_64-linux-gnu/libpthread-2.23.so
7ff7f79ae000-7ff7f79b2000 rw-p 00000000 00:00 0 
7ff7f79b2000-7ff7f79d8000 r-xp 00000000 08:05 4849761                    /lib/x86_64-linux-gnu/ld-2.23.so
7ff7f79e3000-7ff7f7ab6000 rw-p 00000000 00:00 0 
7ff7f7ab6000-7ff7f7ab9000 ---p 00000000 00:00 0 
7ff7f7ab9000-7ff7f7bbb000 rw-p 00000000 00:00 0 
7ff7f7bbd000-7ff7f7bcb000 r--s 000e0000 08:09 16519833                   /home/nikunj/Android/Sdk/build-tools/24.0.0/lib/dx.jar
7ff7f7bcb000-7ff7f7bd3000 rw-s 00000000 08:06 2359300                    /tmp/hsperfdata_root/13798
7ff7f7bd3000-7ff7f7bd4000 rw-p 00000000 00:00 0 
7ff7f7bd4000-7ff7f7bd5000 ---p 00000000 00:00 0 
7ff7f7bd5000-7ff7f7bd7000 rw-p 00000000 00:00 0 
7ff7f7bd7000-7ff7f7bd8000 r--p 00025000 08:05 4849761                    /lib/x86_64-linux-gnu/ld-2.23.so
7ff7f7bd8000-7ff7f7bd9000 rw-p 00026000 08:05 4849761                    /lib/x86_64-linux-gnu/ld-2.23.so
7ff7f7bd9000-7ff7f7bda000 rw-p 00000000 00:00 0 
7ffd7d8bd000-7ffd7d8de000 rw-p 00000000 00:00 0                          [stack]
7ffd7d954000-7ffd7d956000 r--p 00000000 00:00 0                          [vvar]
7ffd7d956000-7ffd7d958000 r-xp 00000000 00:00 0                          [vdso]
ffffffffff600000-ffffffffff601000 r-xp 00000000 00:00 0                  [vsyscall]

VM Arguments:
jvm_args: -Djava.awt.headless=true -Xmx4g -Dfile.encoding=UTF-8 -Duser.country=IN -Duser.language=en -Duser.variant 
java_command: com.android.dx.command.Main --dex --num-threads=4 --multi-dex --main-dex-list /home/nikunj/Documents/19_12_2016/app/build/intermediates/multi-dex/debug/maindexlist.txt --output /home/nikunj/Documents/19_12_2016/app/build/intermediates/transforms/dex/debug/folders/1000/1f/main /home/nikunj/Documents/19_12_2016/app/build/intermediates/transforms/jarMerging/debug/jars/1/1f/combined.jar
java_class_path (initial): /home/nikunj/Android/Sdk/build-tools/24.0.0/lib/dx.jar
Launcher Type: SUN_STANDARD

Environment Variables:
PATH=/usr/local/sbin:/usr/local/bin:/usr/sbin:/usr/bin:/sbin:/bin:/usr/games:/usr/local/games
USERNAME=root
LD_LIBRARY_PATH=.:
SHELL=/bin/bash
DISPLAY=:0

Signal Handlers:
SIGSEGV: [libjvm.so+0xabb070], sa_mask[0]=11111111011111111101111111111110, sa_flags=SA_RESTART|SA_SIGINFO
SIGBUS: [libjvm.so+0xabb070], sa_mask[0]=11111111011111111101111111111110, sa_flags=SA_RESTART|SA_SIGINFO
SIGFPE: [libjvm.so+0x918480], sa_mask[0]=11111111011111111101111111111110, sa_flags=SA_RESTART|SA_SIGINFO
SIGPIPE: [libjvm.so+0x918480], sa_mask[0]=11111111011111111101111111111110, sa_flags=SA_RESTART|SA_SIGINFO
SIGXFSZ: [libjvm.so+0x918480], sa_mask[0]=11111111011111111101111111111110, sa_flags=SA_RESTART|SA_SIGINFO
SIGILL: [libjvm.so+0x918480], sa_mask[0]=11111111011111111101111111111110, sa_flags=SA_RESTART|SA_SIGINFO
SIGUSR1: SIG_DFL, sa_mask[0]=00000000000000000000000000000000, sa_flags=none
SIGUSR2: [libjvm.so+0x919ab0], sa_mask[0]=00100000000000000000000000000000, sa_flags=SA_RESTART|SA_SIGINFO
SIGHUP: [libjvm.so+0x91aeb0], sa_mask[0]=11111111011111111101111111111110, sa_flags=SA_RESTART|SA_SIGINFO
SIGINT: [libjvm.so+0x91aeb0], sa_mask[0]=11111111011111111101111111111110, sa_flags=SA_RESTART|SA_SIGINFO
SIGTERM: [libjvm.so+0x91aeb0], sa_mask[0]=11111111011111111101111111111110, sa_flags=SA_RESTART|SA_SIGINFO
SIGQUIT: [libjvm.so+0x91aeb0], sa_mask[0]=11111111011111111101111111111110, sa_flags=SA_RESTART|SA_SIGINFO


---------------  S Y S T E M  ---------------

OS:DISTRIB_ID=Ubuntu
DISTRIB_RELEASE=16.04
DISTRIB_CODENAME=xenial
DISTRIB_DESCRIPTION="Ubuntu 16.04.1 LTS"

uname:Linux 4.4.0-47-generic #68-Ubuntu SMP Wed Oct 26 19:39:52 UTC 2016 x86_64
libc:glibc 2.23 NPTL 2.23 
rlimit: STACK 8192k, CORE 0k, NPROC 31377, NOFILE 65536, AS infinity
load average:16.33 7.47 3.55

/proc/meminfo:
MemTotal:        8072780 kB
MemFree:          139404 kB
MemAvailable:      76012 kB
Buffers:            1604 kB
Cached:           780616 kB
SwapCached:        34204 kB
Active:          6426036 kB
Inactive:        1197380 kB
Active(anon):    6391748 kB
Inactive(anon):  1165960 kB
Active(file):      34288 kB
Inactive(file):    31420 kB
Unevictable:          80 kB
Mlocked:              80 kB
SwapTotal:       7999484 kB
SwapFree:            220 kB
Dirty:               388 kB
Writeback:             0 kB
AnonPages:       6809592 kB
Mapped:           526856 kB
Shmem:            715816 kB
Slab:             176888 kB
SReclaimable:      77380 kB
SUnreclaim:        99508 kB
KernelStack:       13072 kB
PageTables:        68084 kB
NFS_Unstable:          0 kB
Bounce:                0 kB
WritebackTmp:          0 kB
CommitLimit:    12035872 kB
Committed_AS:   19273720 kB
VmallocTotal:   34359738367 kB
VmallocUsed:           0 kB
VmallocChunk:          0 kB
HardwareCorrupted:     0 kB
AnonHugePages:   3227648 kB
CmaTotal:              0 kB
CmaFree:               0 kB
HugePages_Total:       0
HugePages_Free:        0
HugePages_Rsvd:        0
HugePages_Surp:        0
Hugepagesize:       2048 kB
DirectMap4k:      210948 kB
DirectMap2M:     8075264 kB
DirectMap1G:     1048576 kB


CPU:total 4 (2 cores per cpu, 2 threads per core) family 6 model 60 stepping 3, cmov, cx8, fxsr, mmx, sse, sse2, sse3, ssse3, sse4.1, sse4.2, popcnt, avx, avx2, aes, clmul, erms, lzcnt, ht, tsc, tscinvbit, bmi1, bmi2

/proc/cpuinfo:
processor	: 0
vendor_id	: GenuineIntel
cpu family	: 6
model		: 60
model name	: Intel(R) Core(TM) i3-4150 CPU @ 3.50GHz
stepping	: 3
microcode	: 0x19
cpu MHz		: 3332.656
cache size	: 3072 KB
physical id	: 0
siblings	: 4
core id		: 0
cpu cores	: 2
apicid		: 0
initial apicid	: 0
fpu		: yes
fpu_exception	: yes
cpuid level	: 13
wp		: yes
flags		: fpu vme de pse tsc msr pae mce cx8 apic sep mtrr pge mca cmov pat pse36 clflush dts acpi mmx fxsr sse sse2 ss ht tm pbe syscall nx pdpe1gb rdtscp lm constant_tsc arch_perfmon pebs bts rep_good nopl xtopology nonstop_tsc aperfmperf eagerfpu pni pclmulqdq dtes64 monitor ds_cpl vmx est tm2 ssse3 sdbg fma cx16 xtpr pdcm pcid sse4_1 sse4_2 movbe popcnt tsc_deadline_timer aes xsave avx f16c rdrand lahf_lm abm tpr_shadow vnmi flexpriority ept vpid fsgsbase tsc_adjust bmi1 avx2 smep bmi2 erms invpcid xsaveopt dtherm arat pln pts
bugs		:
bogomips	: 6984.37
clflush size	: 64
cache_alignment	: 64
address sizes	: 39 bits physical, 48 bits virtual
power management:

processor	: 1
vendor_id	: GenuineIntel
cpu family	: 6
model		: 60
model name	: Intel(R) Core(TM) i3-4150 CPU @ 3.50GHz
stepping	: 3
microcode	: 0x19
cpu MHz		: 2653.027
cache size	: 3072 KB
physical id	: 0
siblings	: 4
core id		: 1
cpu cores	: 2
apicid		: 2
initial apicid	: 2
fpu		: yes
fpu_exception	: yes
cpuid level	: 13
wp		: yes
flags		: fpu vme de pse tsc msr pae mce cx8 apic sep mtrr pge mca cmov pat pse36 clflush dts acpi mmx fxsr sse sse2 ss ht tm pbe syscall nx pdpe1gb rdtscp lm constant_tsc arch_perfmon pebs bts rep_good nopl xtopology nonstop_tsc aperfmperf eagerfpu pni pclmulqdq dtes64 monitor ds_cpl vmx est tm2 ssse3 sdbg fma cx16 xtpr pdcm pcid sse4_1 sse4_2 movbe popcnt tsc_deadline_timer aes xsave avx f16c rdrand lahf_lm abm tpr_shadow vnmi flexpriority ept vpid fsgsbase tsc_adjust bmi1 avx2 smep bmi2 erms invpcid xsaveopt dtherm arat pln pts
bugs		:
bogomips	: 6984.37
clflush size	: 64
cache_alignment	: 64
address sizes	: 39 bits physical, 48 bits virtual
power management:

processor	: 2
vendor_id	: GenuineIntel
cpu family	: 6
model		: 60
model name	: Intel(R) Core(TM) i3-4150 CPU @ 3.50GHz
stepping	: 3
microcode	: 0x19
cpu MHz		: 3197.031
cache size	: 3072 KB
physical id	: 0
siblings	: 4
core id		: 0
cpu cores	: 2
apicid		: 1
initial apicid	: 1
fpu		: yes
fpu_exception	: yes
cpuid level	: 13
wp		: yes
flags		: fpu vme de pse tsc msr pae mce cx8 apic sep mtrr pge mca cmov pat pse36 clflush dts acpi mmx fxsr sse sse2 ss ht tm pbe syscall nx pdpe1gb rdtscp lm constant_tsc arch_perfmon pebs bts rep_good nopl xtopology nonstop_tsc aperfmperf eagerfpu pni pclmulqdq dtes64 monitor ds_cpl vmx est tm2 ssse3 sdbg fma cx16 xtpr pdcm pcid sse4_1 sse4_2 movbe popcnt tsc_deadline_timer aes xsave avx f16c rdrand lahf_lm abm tpr_shadow vnmi flexpriority ept vpid fsgsbase tsc_adjust bmi1 avx2 smep bmi2 erms invpcid xsaveopt dtherm arat pln pts
bugs		:
bogomips	: 6984.37
clflush size	: 64
cache_alignment	: 64
address sizes	: 39 bits physical, 48 bits virtual
power management:

processor	: 3
vendor_id	: GenuineIntel
cpu family	: 6
model		: 60
model name	: Intel(R) Core(TM) i3-4150 CPU @ 3.50GHz
stepping	: 3
microcode	: 0x19
cpu MHz		: 3126.210
cache size	: 3072 KB
physical id	: 0
siblings	: 4
core id		: 1
cpu cores	: 2
apicid		: 3
initial apicid	: 3
fpu		: yes
fpu_exception	: yes
cpuid level	: 13
wp		: yes
flags		: fpu vme de pse tsc msr pae mce cx8 apic sep mtrr pge mca cmov pat pse36 clflush dts acpi mmx fxsr sse sse2 ss ht tm pbe syscall nx pdpe1gb rdtscp lm constant_tsc arch_perfmon pebs bts rep_good nopl xtopology nonstop_tsc aperfmperf eagerfpu pni pclmulqdq dtes64 monitor ds_cpl vmx est tm2 ssse3 sdbg fma cx16 xtpr pdcm pcid sse4_1 sse4_2 movbe popcnt tsc_deadline_timer aes xsave avx f16c rdrand lahf_lm abm tpr_shadow vnmi flexpriority ept vpid fsgsbase tsc_adjust bmi1 avx2 smep bmi2 erms invpcid xsaveopt dtherm arat pln pts
bugs		:
bogomips	: 6984.37
clflush size	: 64
cache_alignment	: 64
address sizes	: 39 bits physical, 48 bits virtual
power management:



Memory: 4k page, physical 8072780k(139404k free), swap 7999484k(220k free)

vm_info: Java HotSpot(TM) 64-Bit Server VM (25.74-b02) for linux-amd64 JRE (1.8.0_74-b02), built on Jan 29 2016 19:20:56 by "java_re" with gcc 4.3.0 20080428 (Red Hat 4.3.0-8)

time: Tue Dec 20 21:16:34 2016
elapsed time: 151 seconds (0d 0h 2m 31s)

