doctor_id,reputation,clinic,availability,approachability,technology,average_score,comment,1,customer_ip,date_created,visibility
1261,5,5,5,5,5,5.0,"????? ??? ?????? ???? ??????? ????? ??? ???? ???? ????? ???? ?????? ??????? ????? ?? ?????? ???? ????? ???? ???? ???? ??????? ???????? ???? ????????? ???? ???? ?? ???? ????? ??? ??? ???? ???? ?????? ?? ?? ???? ?????? ??? ???",1,41.42.134.140,"2017-07-03 12:04:42",1
5835,5,5,5,5,4,4.8,"???? ??????? ???? ?????? ?? ?? ?? ???? ",1,159.0.140.159,"2017-07-03 13:10:12",1
847,5,5,,,,2.0,"???? ?? ????? ???????",1,45.247.2.250,"2017-07-03 13:15:04",1
-579345,,,,,,0.0,,1,45.247.2.250,"2017-07-03 13:15:07",1
610,1,1,1,1,1,1.0,"?? ???? ????????",1,37.217.109.215,"2017-07-03 14:06:12",1
592,5,4,5,5,5,4.8,"???? ????? ??????? ?? ???",1,197.48.130.7,"2017-07-03 14:17:19",1
6042,5,5,5,5,5,5.0,"???? ???? ???? ??????",1,196.146.127.129,"2017-07-03 15:08:47",1
4797,3,3,3,2,2,2.6,"?????? ??? ???? ??????? ??? ????? ?? ????? ????? ????? ??? ???? ???? ?????? ??? ???? ",1,196.221.161.118,"2017-07-03 16:19:04",1
6108,,,,,,0.0,,1,196.153.171.255,"2017-07-03 16:52:05",1
1810,5,5,1,2,3,3.2,???,1,197.34.196.225,"2017-07-03 17:56:49",1
14417,5,4,4,5,5,4.6,"???? ???? ????? ????? 250 ????
",1,41.235.217.14,"2017-07-03 18:28:12",1
2553,5,4,4,4,5,4.4,"????? ????? ",1,156.223.180.162,"2017-07-03 19:08:01",1
221,,,,,,0.0,"????? ???? ?? ???????????????? ",1,41.69.178.131,"2017-07-03 22:07:52",1
1862,1,4,2,2,2,2.2,"?? ????? ?????? ????? ????????",1,196.133.73.151,"2017-07-03 23:48:54",1
