doctor_id,reputation,clinic,availability,approachability,technology,average_score,comment,1,customer_ip,date_created,visibility
2802,5,4,5,5,5,4.8,"????? ??? ???",1,196.128.150.70,"2017-08-08 02:39:40",1
1364,5,5,5,3,5,4.6,???,1,41.46.141.151,"2017-08-08 03:29:52",1
3037,,,,,,0.0,"??????? ?? ????? ?? ????? ??? ??? ????? ?????? ????",1,197.133.110.181,"2017-08-08 03:51:58",1
5831,,,,,,0.0,"????? ???? ??? ???????? ???? ???????  ? ?????? ?? ?? ????? ???? ??? ?? ???? ??? ??? ???? ????? ??? ",1,105.92.136.27,"2017-08-08 04:06:55",1
1557,5,5,5,5,5,5.0,?????,1,196.144.255.207,"2017-08-08 04:50:46",1
4016,5,5,,5,5,4.0,"????? ????? 
???? ????? ?? ????",1,196.149.253.158,"2017-08-08 04:58:03",1
1719,5,5,5,5,5,5.0,"????? ?????? ?? ?????? ?????? ????? ????",1,197.38.226.168,"2017-08-08 06:16:36",1
1878,1,,1,1,1,0.8,"?????? ??? ????? ?????? ??? ????? ???? ?? ?? ????? ??? ?????? ??????? ?? ???? ????? ?? ????? ????? ?????? ? ? ??? ???? ??? ????? ???? ????? ???? ?????? ????? ???? ?????? 000 ?? ??? ????? ???????",1,105.35.7.161,"2017-08-08 07:51:36",1
1878,1,,1,1,1,0.8,"?????? ??? ????? ?????? ??? ????? ???? ?? ?? ????? ??? ?????? ??????? ?? ???? ????? ?? ????? ????? ?????? ? ? ??? ???? ??? ????? ???? ????? ???? ?????? ????? ???? ?????? 000 ?? ??? ????? ???????",1,105.35.7.161,"2017-08-08 07:51:36",1
2281,,,,,,0.0,"?????? ??????? ?? 12?5???? ???? ????? ? ??????? ? ???????? ? ??????       ? ???? ???????? ? ?????? ?? 5? ???11?
",1,156.212.191.124,"2017-08-08 08:07:47",1
4646,,,,,,0.0,"????? ???? ?????010???? ?? ??? ???? ???? ?? ???????
 ",1,217.55.140.89,"2017-08-08 08:22:19",1
7041,5,4,5,5,5,4.8,"?????? ???????? ????",1,197.42.0.74,"2017-08-08 08:26:23",1
1416,5,5,5,5,5,5.0,????,1,41.233.248.111,"2017-08-08 08:48:10",1
14965,5,4,3,4,5,4.2,"???? ???? ??? ?? ????? ??????? ???? ???? ??? ???? ???? ???????",1,196.205.5.131,"2017-08-08 10:00:58",1
4646,,,,,,0.0,"????? ????????? ????
???? ??????????",1,197.135.180.47,"2017-08-08 10:25:10",1
3093,5,5,5,5,5,5.0,"???? ?? ??? ????? ???????? ???? ?????? ???? ??????? ???? ?? ?? ???",1,197.120.198.67,"2017-08-08 11:16:16",1
