doctor_id,reputation,clinic,availability,approachability,technology,average_score,comment,1,customer_ip,date_created,visibility
4367,3,3,4,2,2,2.8,"?????? ???? ??? ???? ????? ???? ???? ???  ?????? ????? ????? ????? ??? ??? ?????? ????? ???? ???? ?????? ???? ????? ?? ?????? ??? ???",1,197.125.165.210,"2017-05-20 14:37:41",1
1293,5,4,5,5,5,4.8,"???? ????? ?? ???????? ???? ?? ????? ? ???????",1,156.199.92.107,"2017-05-20 22:12:44",1
2743,4,3,3,3,4,3.4,"?? ???? ?????? ????????",1,156.199.92.107,"2017-05-20 22:15:38",1
