doctor_id,reputation,clinic,availability,approachability,technology,average_score,comment,1,customer_ip,date_created,visibility
6536,5,2,2,5,5,3.8,????,1,197.41.6.75,"2017-05-07 01:26:29",1
3271,5,,,5,,2.0,"????? ???? ??? ???? ?? ??? ????? ??? ?? ????? ???????? ????????
",1,213.255.145.230,"2017-05-07 03:07:19",1
3073,,,,,,0.0,"????? ???? ????? ?? ???????? ????? ????? ?? ?? ??? ????? ??? ??? ?? ?? ??????? ?? ??????  ?????? ????? ????? ???? ???? ????? ???? ????? ????? ????? ???? ???? ??? ??????? ???? ???? ?? ???? ?? ????? ???? ???? ???? ?? ???? ???? ??? ????? ??? ??????? ?? ??? ???? ??? ???? ??? ???? ????? ??? ????? ??? ???",1,62.114.145.130,"2017-05-07 03:56:13",1
2682,,,,,,0.0,"??? ??????? ????",1,196.155.166.110,"2017-05-07 04:05:00",1
16750,5,5,5,5,5,5.0,"?????.. ???? ???? ???",1,105.85.68.44,"2017-05-07 09:10:49",1
964,,,,,,0.0,"??? ?????? ???? ????? .. ??? 7 ????? ??? ?? ???? ?????? ????? ??? ???? ???? ???? ???? ?????? .. ????? ?????? ??????? ??????? ???????? ???? ?? ??? ??? ????? ??? ?????? .. ??????? ???? ??????? ?? ?????? ??? ?????? ??????? .. ???? ?????? ??? ??? ???? ????? ?????? ????? ??? ??? ?????? ?????? ???????? ??",1,197.164.161.205,"2017-05-07 09:13:03",1
569,5,,,,,1.0,"??? ??? ?????? ??? ????? ?? ?????? ????? ??????? ???? ??????? ???? ?? ????? ?????? ?? ??? ?????? ????? ???? ???? ????? ???? ????? ????? ",1,156.199.235.122,"2017-05-07 09:36:07",1
183,5,5,,,5,3.0,"?? ???? ???????? ",1,154.128.14.85,"2017-05-07 09:44:33",1
2695,1,1,1,1,1,1.0,"??? ???? ?? ??????? ??? ?????? ???? ????? ?? ??????",1,41.45.243.129,"2017-05-07 10:47:51",1
14105,5,5,5,5,5,5.0,"???? ?? ?????",1,61.68.4.145,"2017-05-07 10:55:42",1
2119,5,5,5,5,5,5.0,,1,156.216.119.150,"2017-05-07 11:05:08",1
3109,5,4,4,5,5,4.6,?????,1,45.242.66.190,"2017-05-07 11:32:32",1
