doctor_id,reputation,clinic,availability,approachability,technology,average_score,comment,1,customer_ip,date_created,visibility
1100,1,3,1,1,,1.2,"?? ??? ???? ???? ????? ??? ??? ???? ???? ?????",1,41.237.227.134,"2017-09-02 03:10:59",1
3339,5,5,5,5,5,5.0,"????? ",1,156.210.202.45,"2017-09-02 03:14:13",1
4648,5,5,5,5,5,5.0,"?????? ??? ???????
??? ????? ???? 

",1,197.164.192.70,"2017-09-02 04:26:46",1
2136,5,5,5,5,5,5.0,"????? ?????? ????? ? ?????",1,62.178.237.96,"2017-09-02 06:47:40",1
1559,5,5,5,5,5,5.0,"????? ????? ?????? ??? ???? ? ????? ",1,41.42.64.188,"2017-09-02 09:02:50",1
2677,5,5,5,5,5,5.0,"????? ???? ?? ???? ???????? ???? ????? ????? ",1,197.126.159.235,"2017-09-02 11:35:59",1
