doctor_id,reputation,clinic,availability,approachability,technology,average_score,comment,1,customer_ip,date_created,visibility
735,5,5,5,5,5,5.0,?????,1,196.136.187.67,"2017-06-25 13:57:19",1
2011,5,3,5,5,5,4.6,"????? ??????",1,41.45.85.82,"2017-06-25 14:37:26",1
15698,5,5,5,5,5,5.0,"????? ??????? ????? ?????? ",1,45.244.52.35,"2017-06-25 15:00:54",1
2136,5,5,5,5,5,5.0,?????,1,156.213.72.170,"2017-06-25 16:13:21",1
1638,5,5,5,5,5,5.0,"???? ????? ??? ",1,156.216.229.87,"2017-06-25 21:32:24",1
2264,2,,,,,0.4,"???? ?? ????? ?????? ?? ???? ?? ?????",1,41.153.86.83,"2017-06-25 22:53:55",1
