doctor_id,reputation,clinic,availability,approachability,technology,average_score,comment,1,customer_ip,date_created,visibility
1281,5,5,5,5,5,5.0,"The best by far.",1,92.236.168.133,"2017-08-13 02:58:23",1
205,5,5,5,5,5,5.0,?????,1,197.43.170.150,"2017-08-13 03:42:49",1
-579345,,,,,,0.0,,1,40.77.167.132,"2017-08-13 04:28:16",1
2689,,,,,,0.0,"???? ???? ???? ?????? ??? ????? ???? ",1,41.239.94.31,"2017-08-13 04:30:19",1
14903,1,1,1,1,1,1.0,"??? ????? ????? ????? ???? ????? ??? ",1,41.239.94.31,"2017-08-13 04:34:59",1
799,5,5,5,5,5,5.0,"????? ?????  ????? ",1,37.106.5.15,"2017-08-13 05:25:08",1
1110,5,5,5,5,5,5.0,"???? ???? ????",1,196.146.40.165,"2017-08-13 06:05:10",1
2819,5,5,,1,,2.2,"????? ????? ???",1,196.136.214.196,"2017-08-13 07:30:43",1
6700,,,,,,0.0,???,1,41.45.33.112,"2017-08-13 07:58:47",1
18854,5,5,5,5,5,5.0,"Very kind and approchable provides honest advice and very knowledgable",1,156.205.141.112,"2017-08-13 08:19:03",1
18190,,,,,,0.0,"Jv9hp5  <a href=""http://xjhejvbmdtte.com/"">xjhejvbmdtte</a>, [url=http://hpkrzqjxyrek.com/]hpkrzqjxyrek[/url], [link=http://nvgdemmjinoo.com/]nvgdemmjinoo[/link], http://boekgthrbids.com/",1,178.159.37.111,"2017-08-13 08:45:08",0
5502,5,5,5,5,5,5.0,"????? ",1,196.144.114.69,"2017-08-13 11:06:39",1
11186,5,5,5,5,5,5.0,"???? ??????? ???? ????? ???????.. ???? ????? ",1,41.233.225.181,"2017-08-13 11:18:22",1
142,5,5,5,5,5,5.0,"??? ???",1,156.204.225.203,"2017-08-13 11:23:38",1
