doctor_id,reputation,clinic,availability,approachability,technology,average_score,comment,1,customer_ip,date_created,visibility
3323,4,4,4,4,4,4.0,"????? ???????? ???? ?? ????
",1,156.196.206.116,"2017-04-25 12:08:27",1
2436,5,3,5,5,5,4.6,"????? ?????",1,156.216.205.221,"2017-04-25 12:41:30",1
2436,,,,,,0.0,"??? ????? ????? ?????? ???? ??? ????? ??????? ???? ?? ???? ??? ??????",1,156.216.67.216,"2017-04-25 12:52:53",1
3975,5,5,5,5,5,5.0,"??????? ???? ???
??? ?? ??? ???????",1,196.142.245.17,"2017-04-25 15:17:54",1
7042,,,,,,0.0,"????? ?????? ???? 
",1,41.33.209.206,"2017-04-25 15:39:52",1
13139,4,4,3,1,3,3.0,????,1,197.246.40.217,"2017-04-25 19:50:28",1
674,4,4,3,4,3,3.6,"????? ???",1,197.246.40.217,"2017-04-25 19:56:21",1
745,5,5,,,5,3.0,"????? ????? ??????",1,156.184.210.183,"2017-04-25 19:57:17",1
