doctor_id,reputation,clinic,availability,approachability,technology,average_score,comment,1,customer_ip,date_created,visibility
20399,,,,,,0.0,"?? ???? ????? ?? ???????",1,196.128.120.206,"2017-07-17 12:08:28",1
1190,5,5,5,5,5,5.0,????,1,197.133.19.186,"2017-07-17 12:22:29",1
3981,,,,,,0.0,"?????? ????? ????? ???? ??????? ?? ????? ??????? ???? ??? ???? ???? ?? ??? ??????? ????? ??? ??????? ??? ???? ?????",1,37.125.203.26,"2017-07-17 12:57:56",1
6545,5,5,5,5,5,5.0,?????,1,197.47.65.245,"2017-07-17 14:31:35",1
301,5,5,4,4,4,4.4,?????,1,197.127.69.216,"2017-07-17 15:53:21",1
616,5,5,5,5,5,5.0,"????? ????? ",1,45.99.3.244,"2017-07-17 23:49:49",1
