doctor_id,reputation,clinic,availability,approachability,technology,average_score,comment,1,customer_ip,date_created,visibility
12435,5,5,5,5,5,5.0,"???? ????? ???",1,95.184.95.77,"2017-06-23 13:49:25",1
3197,5,3,4,3,4,3.8,2122,1,197.44.214.87,"2017-06-23 14:39:04",1
14949,5,5,5,5,5,5.0,"Excellent doctor ",1,86.178.10.191,"2017-06-23 16:10:31",1
20009,5,5,5,5,5,5.0,"????? ???????",1,197.125.32.131,"2017-06-23 16:45:43",1
5148,1,3,1,2,1,1.6,??????????????????????????????,1,41.235.87.23,"2017-06-23 18:07:42",1
1731,,,,,,0.0,"????? ????
",1,94.129.157.254,"2017-06-23 18:15:46",1
1071,1,1,1,1,1,1.0,???,1,45.98.49.243,"2017-06-23 19:50:30",1
14906,,,,,,0.0,"I discovered your Dr. Issam  al Attar | Top Doctors page and noticed you could have a lot more traffic. I have found that the key to running a website is making sure the visitors you are getting are interested in your subject matter. We can send you targeted traffic and we let you try it for free. G",1,173.245.203.116,"2017-06-23 23:02:25",0
