doctor_id,reputation,clinic,availability,approachability,technology,average_score,comment,1,customer_ip,date_created,visibility
1425,,,,,,0.0,"??? ????? ????? ???????? ????? ??????? ???? 
",1,156.201.178.128,"2017-05-01 03:53:34",1
1425,,,,,,0.0,"??? ????? ????? ???????? ????? ??????? ???? 
",1,156.201.178.128,"2017-05-01 03:53:34",1
1425,,,,,,0.0,"??? ????? ????? ???????? ????? ??????? ???? 
",1,156.201.178.128,"2017-05-01 03:53:35",1
4331,5,3,4,5,4,4.2,"?????? ?????? ? ????? ???? ? ?????? ????? ???? ? ??????? ????? ???? ??????? ?????? ??????? ???? ??????? ",1,41.34.4.249,"2017-05-01 03:57:42",1
1183,,,,1,,0.2,"?? ????? ??? ???? ??????? ?? ?????? ?? ??????? ??????? ??? ?? ??????",1,41.68.12.87,"2017-05-01 04:09:09",1
4950,5,5,5,5,5,5.0,"????? ???? ??? ????? ???? ??? ??? ???? ?? ????? ???? ??? ",1,156.172.60.202,"2017-05-01 04:57:17",1
3094,5,5,5,5,5,5.0,????,1,105.38.116.147,"2017-05-01 05:12:18",1
196,5,5,5,5,5,5.0,"???? ??????? ?? ????? ????? ????? ?????? ????? ????? ????? ?????? ?? ?? ?????? ?????? ??????? ?????? 
????? ?? ??? ????? ???",1,197.48.99.157,"2017-05-01 06:35:01",1
16856,5,4,5,5,5,4.8,"???? ?? ????? ??????? ???? ???? ????? ?????? ????????? ??????? ???????, ?? ?? ???? ?? ???? ???????? ???? ????? ??????? ? ????? ???? ????? ?? ?????? ? ?? ???? ???? ? ?? ???? ??????.",1,196.134.170.191,"2017-05-01 07:34:28",1
3813,5,5,5,5,5,5.0,"????? ??????? ???? ???? ?????? ?? ???? ????? ?????? ?? ?? ??? ?????? ??? ???????",1,156.208.86.91,"2017-05-01 08:00:59",1
3751,1,5,1,1,1,1.8,???,1,197.133.127.90,"2017-05-01 08:04:06",1
2896,5,5,5,5,5,5.0,"????? 
",1,41.68.11.90,"2017-05-01 10:47:17",1
3813,5,5,5,5,5,5.0,"?????? ?? ???",1,196.132.81.12,"2017-05-01 10:55:35",1
1304,5,5,5,5,5,5.0,"????? ????? ???? ????? ????? ????? ?? ????? ",1,31.215.88.23,"2017-05-01 12:33:37",1
201,5,5,5,5,5,5.0,?????,1,168.235.198.112,"2017-05-01 13:02:32",1
7582,5,4,4,4,5,4.4,?????,1,154.100.233.106,"2017-05-01 14:44:14",1
549,5,5,5,5,5,5.0,?????,1,41.35.155.72,"2017-05-01 14:49:19",1
5053,5,4,5,5,5,4.8,"???? ???????",1,156.222.233.234,"2017-05-01 16:06:46",1
3934,2,4,2,1,3,2.4,"???? ???????? ?? ????? ????????? ??????? ????? ??? ???? ??????? ????? ???????. ??????? ??? ??? ???. ??? ?????? ????? ????? ?? ??? ??? (64 ????) (????? ???? ?????? ??? ????? ??????) ????? ?????? ??? ???? ????? ???? ??? ???? ???? ??????? ????? ?????? ?????. ??????? ??? ???? ??????? ???? ???? ???? ????",1,76.94.116.246,"2017-05-01 20:28:56",1
1188,5,5,5,5,5,5.0,"????? ?????? ??????? ???????? ?? ?????? ???????? ????? ",1,156.194.237.157,"2017-05-01 20:44:42",1
2890,5,5,5,5,5,5.0,?????,1,41.68.235.124,"2017-05-01 23:53:13",1
