doctor_id,reputation,clinic,availability,approachability,technology,average_score,comment,1,customer_ip,date_created,visibility
5908,5,5,5,5,5,5.0,"????? ????? ???? ??? ???? ???????? ???? ???? ????? ????? ????? ????? ",1,196.152.210.28,"2017-06-16 13:18:47",1
2315,5,,,5,5,3.0,"?? ??? ???? ????? ?????",1,197.135.211.191,"2017-06-16 13:41:41",1
398,5,4,5,5,5,4.8,"???? ??????? ",1,154.129.171.63,"2017-06-16 16:53:41",1
11186,5,5,5,5,5,5.0,?????,1,197.52.118.48,"2017-06-16 17:18:45",1
2158,5,5,,,,2.0,"
??????? ?? ?????? ???? ??? ?? ???? ???? ??? ",1,41.42.93.11,"2017-06-16 19:33:40",1
4293,5,5,5,5,5,5.0,"????? ",1,156.208.189.35,"2017-06-16 20:41:33",1
2690,,,,,,0.0,"??? ??? ?????  ??? ?? ?????? ????? ???? ??? ?.. ???? ???????",1,197.38.85.3,"2017-06-16 21:46:03",1
4259,1,3,1,1,1,1.4,"???? ???? ??? ???",1,196.145.149.216,"2017-06-16 21:51:46",1
1100,3,2,2,2,1,2.0,"???? ??? ?????? ???? ???? ????? ??? ???? ???? ????? ",1,196.145.76.216,"2017-06-16 22:50:57",1
