doctor_id,reputation,clinic,availability,approachability,technology,average_score,comment,1,customer_ip,date_created,visibility
2949,1,1,1,1,1,1.0,"???? ???????",1,156.161.251.200,"2017-08-22 14:39:20",1
2989,,,,,,0.0,"?? ???? ?????? ??????? ?? ?????????? ????",1,45.247.5.171,"2017-08-22 14:43:54",1
1273,5,5,4,5,3,4.4,?????,1,196.154.230.215,"2017-08-22 14:54:48",1
20432,1,5,1,2,2,2.2,"???? ..???? ???? ???? ??????",1,105.83.91.34,"2017-08-22 15:53:14",1
2264,5,5,4,4,4,4.4,"????? ???? ????? ??????? ???
",1,41.42.95.32,"2017-08-22 15:54:48",1
5702,,,,,,0.0,"?? ???? ???????",1,196.132.143.128,"2017-08-22 16:12:42",1
2295,5,4,4,4,3,4.0,?????,1,217.55.108.39,"2017-08-22 17:56:17",1
6412,,,,,,0.0,"?? ????? ??????? ????? ???",1,196.221.153.176,"2017-08-22 18:31:42",1
926,5,,,,,1.0,"????? ????",1,196.140.172.104,"2017-08-22 19:48:02",1
