doctor_id,reputation,clinic,availability,approachability,technology,average_score,comment,1,customer_ip,date_created,visibility
714,5,4,3,1,1,2.8,????,1,156.197.205.205,"2017-04-21 12:08:28",1
14585,5,4,,,5,2.8,"????? ???",1,41.68.47.156,"2017-04-21 15:56:21",1
4848,5,5,5,5,5,5.0,"????? ????? ??? ????? ???? ?? ????? ",1,156.175.205.220,"2017-04-21 17:12:33",1
1602,5,5,5,5,5,5.0,"????? ???",1,5.41.196.126,"2017-04-21 17:42:47",1
1200,3,2,2,1,3,2.2,"???? ???? ??? ???? ??????? ?? ??????? ?? ??????",1,156.204.154.96,"2017-04-21 20:03:18",1
4626,,,,,,0.0,"?? ???? ??????? ??? ???? ???? ?? ????????",1,5.41.116.73,"2017-04-21 20:42:05",1
