doctor_id,reputation,clinic,availability,approachability,technology,average_score,comment,1,customer_ip,date_created,visibility
1732,1,1,1,1,1,1.0,,1,41.40.63.150,"2017-09-06 12:59:20",1
16206,4,3,2,2,,2.2,"????? ? ???? ??? ",1,197.43.133.69,"2017-09-06 13:21:11",1
551,5,5,5,5,5,5.0,"????? ????? ???  ",1,196.128.33.200,"2017-09-06 14:13:28",1
1627,1,1,1,1,1,1.0,???,1,41.33.60.226,"2017-09-06 14:51:31",1
158,5,5,,,,2.0,"???? ????? ?????? ?? ????? ??? ???? ????? ???? ??????? ?? ???? ??????? ?? ???? ??????? ??????? ",1,197.133.201.20,"2017-09-06 15:20:21",1
16148,5,5,5,5,5,5.0,????,1,197.135.167.5,"2017-09-06 15:44:13",1
4992,1,,,,1,0.4,"???? ?????? ??? ???? ????? ?? ???.... ??????? ??? ?? ????? ?????? ??? ???? ?? ???? .... ????? ????? ????? ????? ????? ????? ?????? ?? ?????? ????? ?????? ???? ????? ???? ????? ?? ????? ???? ????..... ??? ???? ????     ",1,41.234.199.131,"2017-09-06 16:44:22",1
1800,1,1,1,1,1,1.0,"????? ?????? ??? ?????? ???? ???? 
????? ???? ???? ?????? 3 ????? ?????? ???? ????? ?? ??? ??? ????? ?????? ????? ??? ???? ???????? ????? ??? ???? ??? ??? ???? ????? ???? ???? ????? ???? ? ???? ?????? ????? ???? ??? ??? ",1,41.232.99.126,"2017-09-06 17:22:17",1
674,1,3,1,1,2,1.6,"?????

",1,111.221.45.171,"2017-09-06 17:36:15",1
6676,5,5,3,1,2,3.2,"????? ??? ???? ?????? ?? ?????? ?????????? ?? ??? ?????? ",1,5.41.167.148,"2017-09-06 22:06:37",1
6767,5,5,5,5,5,5.0,"????? ??????? ?????? ???",1,196.142.144.88,"2017-09-06 23:48:36",1
198,5,5,5,5,5,5.0,"????? ????? ??? ?? ?????? ???? ?? ???? ",1,156.196.29.99,"2017-09-06 23:49:37",1
