doctor_id,reputation,clinic,availability,approachability,technology,average_score,comment,1,customer_ip,date_created,visibility
766,5,4,5,5,5,4.8,?,1,41.232.15.16,"2017-04-11 12:26:36",1
15133,5,5,5,5,5,5.0,"???? ????? ?? ?????? ?????????",1,197.41.247.6,"2017-04-11 12:48:28",1
4551,5,5,5,5,5,5.0,"????? ???  ???  ??  ???  ?/ ?????  ?????  ????? ?????  ????? ??????

",1,197.38.37.85,"2017-04-11 13:21:57",1
4655,5,5,5,5,5,5.0,"azeem ",1,156.205.105.137,"2017-04-11 13:39:09",1
1917,,,,,,0.0,"?? ?????????? ??????????? ?????????????? ?????????? ???????????? ????? ??????????? ????? ???? ????? ????????? ????????? ? ???????????? ???? ??? ??? ?????? ???????? ??? ???????????? ??????????. ?????? ?????????? ????????? ? ???????? ????? - ??? ???????? ????, ??????? ?? ????? ??????????? ??? ????????",1,185.45.13.155,"2017-04-11 14:05:06",0
1067,5,5,5,5,5,5.0,"???? ????? ???? ??? ????? ??????",1,41.69.112.234,"2017-04-11 14:06:28",1
1747,5,5,5,5,5,5.0,"??????? ???? ????? ????? ????? ???? ???????? ????? ???? ?? ??? ?????? ????? ??????. 
???? ???? ??? ???????? ??????? ????? ???? ????. ",1,37.37.22.185,"2017-04-11 14:36:23",1
-579345,,,,,,0.0,,1,159.203.81.93,"2017-04-11 14:36:24",1
4560,5,5,5,5,5,5.0,"?? ???? ? ???? ?????? ??????? ?? ??? ? ????? ??????...???? ?? ??? ??? ???",1,156.222.30.158,"2017-04-11 18:14:55",1
6508,5,5,5,5,5,5.0,"????? ????? ",1,196.153.239.126,"2017-04-11 18:49:08",1
-579345,,,,,,0.0,,1,196.153.239.126,"2017-04-11 18:49:13",1
-579345,,,,,,0.0,,1,196.153.239.126,"2017-04-11 18:49:16",1
1924,1,4,1,1,3,2.0,"???? ???? ???? ",1,41.239.190.209,"2017-04-11 18:49:42",1
13110,5,,5,,,2.0,"??? ???? ??? ????? ????? ?? ???? ?????? ????? ??? ???? ????? ???",1,105.41.47.12,"2017-04-11 21:58:41",1
