doctor_id,reputation,clinic,availability,approachability,technology,average_score,comment,1,customer_ip,date_created,visibility
5732,5,5,,,5,3.0,"???? ????? ???? ?? ????? ??? ????? ??? ???? ???? ??????? ?? ????? ??? ??????? ????? ??? ?????. ",1,197.39.21.4,"2017-05-18 00:04:31",1
0,5,5,1,5,5,4.2,1,1,185.100.222.123,"2017-05-18 00:25:25",1
0,5,1,5,5,5,4.2,1,1,185.100.222.123,"2017-05-18 00:25:26",1
0,5,5,5,5,5,5.0,1acuw6CkChiOy1,1,185.100.222.123,"2017-05-18 00:25:26",1
0,5,5,5,5,5,5.0,1,1,185.100.222.123,"2017-05-18 00:25:26",1
0,5,5,5,1,5,4.2,1,1,185.100.222.123,"2017-05-18 00:25:26",1
0,1,5,5,5,5,4.2,1,1,185.100.222.123,"2017-05-18 00:25:26",1
0,5,5,5,5,1,4.2,1,1,185.100.222.123,"2017-05-18 00:25:26",1
-579344,5,5,5,5,5,5.0,1,1,185.100.222.123,"2017-05-18 00:25:26",1
-579345,,,,,,0.0,,1,185.100.222.123,"2017-05-18 00:26:15",1
6710,5,5,5,5,5,5.0,"????? ???? ????? ????? 
???? ????? ??? ??? ???? ",1,197.120.138.254,"2017-05-18 01:42:32",1
13121,5,4,3,3,4,3.8,??,1,105.81.31.211,"2017-05-18 02:50:40",1
5575,,,,,,0.0,"?????? ????? ,,
????? ???? ????? ?????? ?? ????? ?? ???? ???? ??? ???? ????? ????? ??? ????? ???? ????? ..????? ????? ? ????? ? ?????? ?????? ?? ????? ???? ?? ???? ??????? ????? .. ?? ?? ???? ??? ???",1,197.48.124.141,"2017-05-18 06:54:21",1
4492,5,5,5,5,5,5.0,"sherif test review",1,156.196.236.181,"2017-05-18 07:25:03",0
5063,,,,,,0.0,Good,1,156.196.236.181,"2017-05-18 08:34:39",1
4343,,,,,,0.0,Greate,1,156.196.236.181,"2017-05-18 09:16:19",1
4995,,,,,,0.0,Excellent,1,156.196.236.181,"2017-05-18 09:18:37",1
4652,,,,,,0.0,Good,1,156.196.236.181,"2017-05-18 09:21:30",1
2478,5,4,5,5,5,4.8,"????? ????? ??? ",1,156.217.14.231,"2017-05-18 10:53:48",1
