doctor_id,reputation,clinic,availability,approachability,technology,average_score,comment,1,customer_ip,date_created,visibility
14585,5,5,5,5,5,5.0,"???? ????? ????? ???? ?????? ??????",1,196.146.127.142,"2017-06-27 12:27:32",1
1098,5,5,5,5,5,5.0,"???? ???? ????? ????? ??????",1,156.174.116.79,"2017-06-27 12:39:18",1
4517,5,4,4,4,5,4.4,??????????????,1,41.42.12.188,"2017-06-27 15:11:19",1
1318,5,5,5,5,5,5.0,"??? ?????",1,41.232.78.216,"2017-06-27 15:39:00",1
7115,,,5,,,1.0,"?????? ????? ? ??? 

",1,41.46.146.49,"2017-06-27 17:44:35",1
3903,4,3,,,,1.4,"???? ?? ????",1,45.247.64.210,"2017-06-27 18:13:16",1
2980,,,,,,0.0,"?? ??? ????? ???? ",1,154.138.146.113,"2017-06-27 18:17:00",1
12745,5,5,5,5,5,5.0,"???? ????? ?? ???? ???? ",1,156.217.82.127,"2017-06-27 22:26:53",1
