doctor_id,reputation,clinic,availability,approachability,technology,average_score,comment,1,customer_ip,date_created,visibility
18073,5,5,5,5,5,5.0,"Dr.Mohamed Magdi Samir, is the most professional and excellent doctor I ever met, he did an operation in ear and that was to perfection
Thanks doctor",1,196.144.118.39,"2017-06-15 02:20:35",1
6315,5,5,,5,4,3.8,"??? ?? ??????? ????",1,197.41.152.142,"2017-06-15 06:49:32",1
6250,5,5,5,5,5,5.0,"??????? . ?????? ????? ??????? ? ????? ? ????????? ????? ",1,105.33.233.221,"2017-06-15 06:59:01",1
6915,1,1,1,1,1,1.0,"????? ???? ????? ????",1,41.69.179.93,"2017-06-15 07:02:12",1
483,5,4,4,5,5,4.6,"????? ????? ???",1,197.41.92.37,"2017-06-15 08:31:34",1
1293,1,3,2,3,3,2.4,"????? ???? ???",1,41.232.85.159,"2017-06-15 11:03:02",1
440,5,5,5,5,5,5.0,"??? ??? ??? ?????? 
??? ???? ???? ?? ?????     ?? ????? ??? ????? ???????
??? ???? ?? ????? ???? ?? ????? ?? ???????      ????",1,196.145.143.165,"2017-06-15 11:28:18",1
