doctor_id,reputation,clinic,availability,approachability,technology,average_score,comment,1,customer_ip,date_created,visibility
6143,5,3,3,4,4,3.8,?????,1,197.124.117.252,"2017-05-10 02:44:40",1
3086,5,,,,,1.0,"???? ???? ??? ??????? ????  ????? ???? ?? ???? ????? ???? ?? ?????? ????? ???? ?? ???? ????? ??????? ???? ?????? ???????? ",1,94.59.115.141,"2017-05-10 03:11:29",1
55,,,,,,0.0,"???? ???? ? ???????!!
",1,41.65.158.162,"2017-05-10 07:36:59",1
2814,5,4,3,4,5,4.2,"?????? ????? ????? ??? ",1,41.42.112.109,"2017-05-10 08:53:50",1
2466,,,,5,,1.0," ?? ???? ?? ????? ? ?? ????? ?? ???? ?? ??? ??? ???? ?? ???? ??? ???? ??? ???? ????????  ?????  ???? ??  ??? ????? ?? ?? ??? ????? ??????",1,41.232.95.101,"2017-05-10 09:50:55",1
11186,,,,,,0.0,"????? ???? ?????? ???????",1,41.69.189.240,"2017-05-10 10:15:58",1
6076,5,5,,5,5,4.0,"???? ?? ????? .. ???? ???????",1,196.145.129.197,"2017-05-10 10:22:00",1
18937,5,5,3,4,5,4.4,"???? ????? ???? ?????",1,41.69.12.32,"2017-05-10 10:57:32",1
4259,1,,,,3,0.8,"??? ???? ???? ???? ???? ??????? ??? ??? ???????",1,196.137.119.244,"2017-05-10 10:59:49",1
4058,1,,,,,0.2,"??? ???? ",1,196.137.119.244,"2017-05-10 11:12:16",1
