doctor_id,reputation,clinic,availability,approachability,technology,average_score,comment,1,customer_ip,date_created,visibility
742,5,5,,3,3,3.2,"??? ???? ??? ?? ??? ????? ??? ???? ?????   ????? ?????   ???? ???? ????? ????? 4 ???? ????????? ??????? ?? ????     ??? ???? ???? ???? ????? ????? ?? ???? ?????? ????? ????    ??? ???? 01272864745",1,41.69.208.3,"2017-04-20 13:01:12",1
742,5,5,,3,3,3.2,"??? ???? ??? ?? ??? ????? ??? ???? ?????   ????? ?????   ???? ???? ????? ????? 4 ???? ????????? ??????? ?? ????     ??? ???? ???? ???? ????? ????? ?? ???? ?????? ????? ????    ??? ???? 01272864745",1,41.69.208.3,"2017-04-20 13:01:12",1
11284,5,5,5,5,5,5.0,"????? ???? ? ????? ",1,41.237.175.105,"2017-04-20 13:36:02",1
4900,2,2,2,2,2,2.0,"??? ???? ? ?????? ????? ?????? ??? ?????? ????",1,156.208.5.44,"2017-04-20 14:08:13",1
1638,5,5,5,5,5,5.0,"???? ",1,156.216.202.17,"2017-04-20 14:24:23",1
4511,5,5,5,5,5,5.0,"????? ???? ??? ",1,45.247.139.143,"2017-04-20 15:00:29",1
1420,5,5,5,5,5,5.0,"?????  ?????",1,197.38.218.93,"2017-04-20 17:31:13",1
1800,5,5,5,5,5,5.0,"????? ?? ??????? ????? ???? ???????",1,156.198.61.54,"2017-04-20 17:41:05",1
