doctor_id,reputation,clinic,availability,approachability,technology,average_score,comment,1,customer_ip,date_created,visibility
3976,5,5,5,5,5,5.0,"???? ?????? ?? ??? ???? ????? ",1,196.129.81.131,"2017-04-10 03:35:43",1
4968,2,,,,,0.4,"????? ?? ?? ????? ?? ???? ?????? ?????? ????? ??? ??????? ?? ??? ???? ?????? 5????? ???? ????? ???? ????? ???? ???? ????? ???? ???? ??? ??????? ???6600 ???? ???? ???? ???? ??????
",1,197.126.212.235,"2017-04-10 04:08:01",1
1067,5,5,5,5,5,5.0,"???? ??? ?????? ?????? ?? ????? ???????",1,156.222.164.115,"2017-04-10 04:11:55",1
1440,5,5,5,5,5,5.0,,1,45.242.92.158,"2017-04-10 04:16:58",1
1190,,,,,,0.0,"??? ???? ???? ????? ?? ???? ??? ????",1,105.202.99.141,"2017-04-10 04:22:23",1
4393,5,4,5,5,5,4.8,"????? ?????",1,45.244.45.204,"2017-04-10 04:32:30",1
14202,1,1,1,1,1,1.0,"??? ???",1,156.208.9.27,"2017-04-10 06:15:29",1
20876,5,5,5,5,,4.0,?????,1,105.34.51.124,"2017-04-10 06:40:07",1
5701,5,5,5,5,5,5.0,"???? ??????? ????? ?????????????????",1,156.222.164.115,"2017-04-10 07:40:13",1
4423,,,,,,0.0,"???? ????? ?? ????? ????? ??? ?? ???? ???? ????",1,197.46.240.107,"2017-04-10 08:09:11",1
17544,5,5,,4,,2.8,"???? ??? ????? ????? ????? ?????",1,62.135.90.180,"2017-04-10 08:55:14",1
5808,5,5,5,5,5,5.0,"Very professional & humble doctor",1,196.154.153.132,"2017-04-10 08:59:41",1
742,5,4,4,2,4,3.8,1,1,213.144.7.137,"2017-04-10 09:14:44",1
4788,5,4,5,5,5,4.8,"????? ?????? ?? ?????.  ????? ?????? ??? ????????. ",1,45.244.118.21,"2017-04-10 10:06:31",1
922,5,4,5,5,4,4.6,"????? ???? ???? ????? ??? ???? ?? ???? ????? ",1,217.55.173.72,"2017-04-10 11:47:46",1
