doctor_id,reputation,clinic,availability,approachability,technology,average_score,comment,1,customer_ip,date_created,visibility
2504,5,5,5,5,5,5.0,"???? ????? ?????",1,197.39.189.162,"2017-04-04 12:30:55",1
2409,5,5,5,5,5,5.0,"???? ???? ?? ????",1,196.135.25.122,"2017-04-04 12:53:52",1
5507,,,,,,0.0,"????? ????? ???? ???? ?????? ?? ????? ?????? ????? ????? ??? ?????? ?? ??????
",1,197.133.71.28,"2017-04-04 14:12:08",1
4513,1,5,2,2,3,2.6,"????? ???? ????? ???? ?? ????? ????? ??? ??? ??? ??? ?? ???? ????? ",1,156.205.79.45,"2017-04-04 14:50:27",1
13853,5,4,5,5,5,4.8,"The best plastic surgeon in EGYPT;",1,196.221.155.110,"2017-04-04 14:59:28",1
-579345,,,,,,0.0,,1,66.249.93.221,"2017-04-04 15:26:58",1
14313,1,1,1,1,1,1.0,"???? ???? ?????? ?????? ?????? ????? ???? ????",1,41.35.62.111,"2017-04-04 15:44:52",1
14494,5,5,5,5,5,5.0,"???? ?? ?????",1,197.48.245.131,"2017-04-04 15:48:04",1
1296,,,,,,0.0,"??????? ??? ??????? ?? ????? ??????? ???? ???? ???? ???? ??? ??? ????? ????? ?????? ",1,217.55.146.144,"2017-04-04 17:28:53",1
6022,5,5,5,5,5,5.0,"??? ????? ????",1,197.34.132.168,"2017-04-04 17:30:38",1
1296,,,,,,0.0,"??????? ??? ??????? ?? ????? ??????? ???? ???? ???? ???? ????? ??? ??? ???  ????? ????? ?????? ",1,217.55.146.144,"2017-04-04 17:31:20",1
1296,5,5,2,1,4,3.4,"??????? ???? ??????? ???? ?? ??? ??? ??? ????? ???? ????????. ?? ?? ???? ??????? ???? ??? ???? ?? ??? ????? ???? ?? ????? ??????? ????? ????? ??????? ?? ????? ?? ????? ",1,217.55.146.144,"2017-04-04 17:38:48",1
208,5,4,4,5,5,4.6,"????? ?? ???? ???? ??????? ????",1,174.115.73.237,"2017-04-04 20:05:46",1
1389,5,5,3,4,5,4.4,"?????? ?????? ??? ?????",1,154.136.169.57,"2017-04-04 23:10:48",1
