doctor_id,reputation,clinic,availability,approachability,technology,average_score,comment,1,customer_ip,date_created,visibility
17951,5,5,5,5,5,5.0,?????,1,196.140.255.142,"2017-09-04 12:04:01",1
1040,5,4,5,5,5,4.8,"????? ????? ????? ???? ???? ???? ?????",1,196.139.255.246,"2017-09-04 13:26:27",1
252,,,,,,0.0,"???? ??? ??????? ????? ??? ????? ???? ????? ?????? ?????? ??? ???? ???? ????? ??? ????? ????? ?????",1,45.243.50.136,"2017-09-04 13:43:57",1
4234,5,3,3,4,5,4.0,????,1,168.235.198.253,"2017-09-04 13:51:49",1
1119,5,5,5,5,5,5.0,"???? ????? ????? ????? ?? ???",1,154.136.72.16,"2017-09-04 15:49:52",1
1871,5,5,5,5,5,5.0,"???? ?????",1,41.42.165.146,"2017-09-04 16:17:20",1
2237,4,4,4,4,4,4.0,????,1,196.134.200.242,"2017-09-04 16:46:04",1
16786,5,5,5,5,5,5.0,?????,1,129.208.201.112,"2017-09-04 19:03:25",1
1627,1,1,1,1,1,1.0,??,1,196.155.36.140,"2017-09-04 19:43:36",1
1176,5,5,,5,5,4.0,"????? ??? ??????? ?????? ???? ???? ???",1,188.236.58.148,"2017-09-04 22:16:08",1
-579345,,,,,,0.0,,1,159.203.42.143,"2017-09-04 22:16:08",1
