doctor_id,reputation,clinic,availability,approachability,technology,average_score,comment,1,customer_ip,date_created,visibility
755,5,5,5,5,5,5.0,"??? ?? ??????? ???????? ",1,188.71.251.50,"2017-05-03 03:19:40",1
745,,,,,,0.0,"????? ????????????? ?? ??? ?? ???? ???????? ?? ????? ??????",1,197.195.75.137,"2017-05-03 06:28:22",1
16522,5,5,5,5,5,5.0,??,1,37.37.149.194,"2017-05-03 07:59:34",1
376,5,5,5,5,5,5.0,nice,1,41.36.185.171,"2017-05-03 08:02:26",1
8307,5,4,5,5,5,4.8,"????? ????? ????.. ???? ???????",1,41.69.241.223,"2017-05-03 08:14:26",1
6731,5,5,,5,5,4.0,"????? ?????",1,196.148.173.130,"2017-05-03 08:53:50",1
20293,1,1,1,1,1,1.0,"???? ???",1,45.99.219.105,"2017-05-03 09:18:39",1
4001,5,,,,,1.0,"????? ???? ?? ???????? ? ???????? ?? ??? ?????",1,41.36.131.151,"2017-05-03 09:25:39",1
7257,5,5,,5,5,4.0,?????,1,156.202.22.168,"2017-05-03 10:45:49",1
4259,1,,,,,0.2,"Very bad ???? ???? ",1,196.138.239.128,"2017-05-03 11:17:21",1
4274,3,5,3,3,4,3.6,"????? ?????? ??? ???? ???? ????? ????? ???? ??? ???? ??? ?????? ?17000 ???? ???? ?????? ???? ???? ?? ??? ????? ???? ???? ???????? ?? ??? ????? ??? ??? ??? ?????? ????? ???? ?????? ???? ???? ??? ?????? ????? ???? ?? ??? ??????? 
",1,197.47.48.52,"2017-05-03 11:30:36",1
