doctor_id,reputation,clinic,availability,approachability,technology,average_score,comment,1,customer_ip,date_created,visibility
15439,,,,,,0.0,"????? ",1,196.136.116.13,"2017-07-28 03:16:12",1
3296,5,4,4,4,3,4.0,"?? ???? ???????? ???? ?????? ?? ?????? ??????? ???? ????? ???????? ?????? ????? ???????? ????? ??? ???? ????? ??? ",1,41.44.123.97,"2017-07-28 04:55:57",1
2141,5,5,,4,,2.8,????????,1,156.212.42.246,"2017-07-28 05:21:40",1
943,5,5,5,5,5,5.0,"???? ????? ?? ????? ????? ???? ????? ??? ????
",1,156.218.64.118,"2017-07-28 08:27:10",1
1878,5,5,5,5,5,5.0,"?????..??????? ??? ???? ??? ????? ???? ??? ?????.",1,41.254.7.132,"2017-07-28 10:13:50",1
