doctor_id,reputation,clinic,availability,approachability,technology,average_score,comment,1,customer_ip,date_created,visibility
20795,5,5,5,5,5,5.0,"????? ???? ???? ???? ?????? ?? ??? ??????? ??????
",1,105.46.226.1,"2017-06-27 03:36:41",1
6431,5,5,5,5,5,5.0,"????? ???? ???? ????? ... ????? ????? ???? ...?????? ?????? ??????? ??? ???????",1,37.36.93.181,"2017-06-27 05:41:03",1
-579345,,,,,,0.0,,1,138.197.202.197,"2017-06-27 05:41:03",1
1785,5,3,3,1,5,3.4,??????8????,1,41.44.189.13,"2017-06-27 07:14:32",1
2343,1,2,,,,0.6,"?? ?? ?????? ?? ????? ????? ?????? ? ??????? ???? ???? ?????? ??????? ??????? ????? ?? ????? ??????? ????? ?????? ????? ? ?????? ???? ?????",1,45.106.32.38,"2017-06-27 07:25:32",1
1780,1,3,1,1,1,1.4,"???? ????? ?? ?????? ??? ???????",1,156.199.188.85,"2017-06-27 07:40:33",1
2947,5,5,4,4,5,4.6,"????? ???",1,156.210.118.241,"2017-06-27 07:50:04",1
14974,5,3,4,5,5,4.4,?????,1,197.125.132.118,"2017-06-27 09:06:39",1
6108,5,5,5,3,5,4.6,"?? ???? ????? ??????? ?? ??? 
",1,45.247.74.152,"2017-06-27 10:03:04",1
4394,5,4,5,5,5,4.8,"?? ???? ???????",1,197.35.39.245,"2017-06-27 11:23:53",1
