doctor_id,reputation,clinic,availability,approachability,technology,average_score,comment,1,customer_ip,date_created,visibility
2996,5,5,4,4,5,4.6,"???? ????? ?? ?? ???? ??????? ??????? ?? ??? ????? ?? ???? ??? ????",1,156.213.139.66,"2017-05-04 14:11:00",1
5397,5,3,5,5,4,4.4,"?????? ?????? ?????? ???? ? ???? ?????? ",1,41.69.182.97,"2017-05-04 15:49:28",1
2508,5,,,5,,2.0,"???? ????? ????? ????? ?????? ??? ???? ????? ",1,134.35.70.58,"2017-05-04 15:55:46",1
5043,5,5,5,5,5,5.0,"???? ?????? ?? ??? ?? ????? ????? ???? ??? ?? ????? ???? ???? ?? ????? ????? ????? ??? ?? ????? ????? ???? ?????",1,156.208.228.251,"2017-05-04 16:09:57",1
5757,,,,,,0.0,"???? ????? ?? ?????? ??? ????? ???? ????? ???? ??????? ???????? ???? ?? ??? ??? ?????? ?????? ?????? ?? ??? ????? ???? ???? ???? ????? ??????? ???? ???? ??????? ??????? ?? ???? ????? ??????? ????? ??? ?????",1,154.131.22.140,"2017-05-04 16:34:37",1
4400,5,3,5,5,5,4.6,"???? ??????? ??????? ??? ???? ?? ?????",1,156.198.200.222,"2017-05-04 17:17:47",1
5582,5,4,5,5,5,4.8,"??? ????? ???????? ????????? ?????? ???????? ???????? ??????? ?????????? ???????? ??????? .. ????? ???? ?? ????? ????? ? ??? ???? ????? ?????? ???? ?????? ???? ?????? ?????? ??????? ???????? ???? ???? ???? ????? ? ?? ??? ???????? ??? ??? ???? ???????? ???????? ????? .. ???? ???? ????? ????? ???? ???",1,197.161.135.115,"2017-05-04 18:42:41",1
