doctor_id,reputation,clinic,availability,approachability,technology,average_score,comment,1,customer_ip,date_created,visibility
1674,5,5,4,5,4,4.6,"????? ???? ??? ?? ???? ????",1,156.212.212.210,"2017-06-30 12:02:19",1
1780,1,3,1,1,1,1.4,"????? ??? ????? ?? ???? ???? ????????? ??? ???? ??????? ??????? ????? ?????? ????? ??????? ????? ???? ????????? ?????? ???? ??????? ?????? ??? ???? ??? ?? ???? ?? ??? ?? ???? ??????? ???? ??????? ??? ????? ????",1,156.198.86.164,"2017-06-30 12:16:17",1
1347,5,3,1,3,4,3.2,????,1,41.42.77.137,"2017-06-30 12:23:24",1
3916,5,5,5,5,5,5.0,"???? ???? ?? ????? ",1,197.246.193.176,"2017-06-30 12:56:05",1
196,,,,,2,0.4,"????? ???? ????? ??? ??? ??? ????? ???? ??????? ???? ????? ?? ?????? ???      ????? ??? ???? ??? ???????? 
???? ??? ????? ????? ?????? ??",1,197.164.90.78,"2017-06-30 13:26:54",1
11663,5,,,5,,2.0,?????,1,41.236.250.182,"2017-06-30 17:32:49",1
569,5,4,3,1,4,3.4,"????? ????? ???? ?? ???? ??????? ??? ?? ????? ???????",1,156.172.127.111,"2017-06-30 17:37:20",1
2939,5,5,5,5,5,5.0,"?? ???? ??????",1,197.33.156.47,"2017-06-30 18:41:30",1
5186,5,5,,5,5,4.0,"???? ???? ???? ????? ????? ?????
",1,156.196.106.167,"2017-06-30 19:38:52",1
