doctor_id,reputation,clinic,availability,approachability,technology,average_score,comment,1,customer_ip,date_created,visibility
4138,,,,,,0.0,"I came across your Dr. Ahmed  Sameh Farid | Top Doctors website and wanted to let you know that we have decided to open our POWERFUL and PRIVATE web traffic system to the public for a limited time! You can sign up for our targeted traffic network with a free trial as we make this offer available aga",1,95.215.60.141,"2017-06-20 01:15:00",0
566,5,5,3,4,5,4.4,"????? ?????",1,196.219.164.201,"2017-06-20 02:42:38",1
12406,5,5,3,1,3,3.4,"???? ?? ??????? ?? ?? ???????",1,197.47.53.178,"2017-06-20 03:48:37",1
5369,5,5,5,5,5,5.0,"????? ???????",1,41.78.109.160,"2017-06-20 04:41:18",1
701,5,5,5,4,4,4.6,"???????? ?? ????? ????? ?? ??? ?????",1,212.103.170.100,"2017-06-20 06:08:52",1
17110,5,5,5,5,5,5.0,"???? ???? ????  ???? ??. ? ?? ????? ????? ??? ???? ????? ",1,105.204.84.97,"2017-06-20 08:48:48",1
25,,,,,,0.0,"??? ????? 200 ????
",1,197.53.1.218,"2017-06-20 10:11:32",1
3976,,,,,,0.0,"????? ??? ??????? ???? ????? ???? ???? ???? ... ?? ???? ?? ???? ??? ??????? ??? ??????? ??? ?? ?????? ??? ??????? ??????? ??????? ????? ????? ??? ?? ?????. ????? ????? ?????. ",1,197.46.26.60,"2017-06-20 10:36:10",1
1789,5,5,5,5,5,5.0,"????? ???? ?? ?????",1,197.34.137.0,"2017-06-20 11:32:24",1
1749,5,3,2,1,4,3.0,"??? ???? ?????? ???? ??????  ?? ????? ?? ?? ????? ?????
",1,197.32.53.218,"2017-06-20 11:56:09",1
