doctor_id,reputation,clinic,availability,approachability,technology,average_score,comment,1,customer_ip,date_created,visibility
3324,,,,,,0.0,"?????? ????? ??? ????? ??? ?????",1,156.169.133.163,"2017-04-28 12:01:41",1
1261,5,5,4,5,3,4.4,?????,1,45.100.249.219,"2017-04-28 13:06:13",1
1285,5,4,,4,3,3.2,"???? ????
",1,41.42.140.69,"2017-04-28 13:46:47",1
2054,,,,,,0.0,"??????? ???? ??? ???",1,105.93.0.140,"2017-04-28 14:22:11",1
1954,,,,,,0.0,"??? ????? ?? ?????",1,45.96.69.95,"2017-04-28 17:00:15",1
1364,5,5,4,4,5,4.6,"????? ?? ????? ???????? ??????? ?????? ?????? ???? ???? ??? ????? ?????? ??????? ??? ?? ???? ????? ????? ????? ??? ????? ???? ?? ?? ????  ????? ?? ???? ????? ?? ?????? ????? ???? ???? ????????? ???? ???? ????? ?? ????? ?.???? ???? ???? 
? ?.??????? ???? ????",1,197.32.244.154,"2017-04-28 17:55:49",1
175,,,,,,0.0,"?????  ????????? ????? ??? ????? ?????? ??????????? ??????? ??????? ?? ?????? ??????? ?????? ?? ??????????? ??????? ????? ????? ???? ?? ??????
",1,156.222.79.57,"2017-04-28 18:53:41",1
