doctor_id,reputation,clinic,availability,approachability,technology,average_score,comment,1,customer_ip,date_created,visibility
12785,5,5,5,5,5,5.0,"????? ????? ????? ????????",1,156.211.46.188,"2017-07-04 13:31:13",1
1642,5,5,5,5,5,5.0,"???? ????? ????? ???? ????? ???? ???? ??? ??? ???? ????? ????? ??? ?????? ???? ???? ??????? ",1,45.242.20.249,"2017-07-04 15:16:11",1
3094,5,5,5,5,5,5.0,"???? ",1,196.144.31.57,"2017-07-04 17:01:33",1
46,5,5,5,5,5,5.0,"???? ????? ????? ????????",1,78.95.91.217,"2017-07-04 17:44:26",1
2765,1,1,1,1,,0.8,"????? ?? ??? ????? ?? ???? ??? ???? ?????? ??? ????? ???? ????? ??? ???? ???? ????? ???? ???? ?????? ????? ????? ??? ??? ??????",1,45.247.132.212,"2017-07-04 19:59:04",1
16653,5,2,3,4,3,3.4,"??????? ???? ?? ?????",1,196.141.232.93,"2017-07-04 20:24:55",1
15315,4,4,4,4,5,4.2,"???? ?????? ??? ",1,105.81.21.16,"2017-07-04 21:05:07",1
1520,,,,,,0.0,"I came across your Dr. mamdouh agamy | Top Doctors website and wanted to let you know that we have decided to open our POWERFUL and PRIVATE website traffic system to the public for a limited time! You can sign up for our targeted traffic network with a free trial as we make this offer available agai",1,81.171.85.62,"2017-07-04 22:48:19",0
6170,5,5,,,,2.0,"????? ???? ????? ????? ???? ????? ?????? ???? ????? ",1,196.145.15.254,"2017-07-04 22:59:00",1
4211,5,5,5,5,5,5.0,?????,1,51.36.214.98,"2017-07-04 23:50:45",1
