doctor_id,reputation,clinic,availability,approachability,technology,average_score,comment,1,customer_ip,date_created,visibility
2684,5,5,2,5,4,4.2,?????,1,156.198.161.102,"2017-09-13 01:00:34",1
6494,,,,,,0.0,"???? ????? ??? ??? ????? ?????? ?????? ??? 
.",1,105.206.110.54,"2017-09-13 03:21:33",1
28,5,4,4,5,5,4.6,?????,1,156.218.155.45,"2017-09-13 03:37:27",1
3145,5,1,3,3,3,3.0,?????,1,154.129.226.132,"2017-09-13 04:20:51",1
4279,5,4,4,5,5,4.6,"????? ???? ????? ???",1,41.239.56.102,"2017-09-13 04:27:54",1
4279,5,4,4,5,5,4.6,"????? ???? ????? ???",1,41.239.56.102,"2017-09-13 04:27:55",1
13844,5,5,5,5,5,5.0,"???? ???? ??? ????? ????? ?? ????? ?????? ??? ?? ?????? ????? ?????? ?????? ????? ?????",1,156.220.98.129,"2017-09-13 04:28:29",1
2060,,,,,,0.0,"?????? ????? ????? ???? ??????? 
?????? ??????? ?? ???????",1,92.241.51.244,"2017-09-13 04:45:40",1
6075,1,,,,,0.2,"???? ???? ???? ?????? ??? ??? ????? ????? ???? ?????? ????? ??????? ??? ??????? ????? ???? ?? ????? ???? ????? ?? ??????? ?????? ??? ??????? ????? ??? ????? ??????? ??? ?? ?????? ??? ???? ?????? ?? ????? ???? ???? ???? ????? ??? ??????? ???? ?? ????? ???????? ??? ?? ??? ??????? ????? ???? ????
????",1,217.55.169.151,"2017-09-13 04:49:11",1
2663,5,5,3,5,4,4.4,"????? ????? ??? ????? ???",1,197.39.19.37,"2017-09-13 05:13:21",1
4070,5,5,,5,5,4.0,?????,1,41.38.152.54,"2017-09-13 07:26:03",1
15684,5,5,5,5,5,5.0,?????,1,105.204.233.52,"2017-09-13 07:44:00",1
6108,5,5,5,5,5,5.0,"????
",1,156.208.28.244,"2017-09-13 09:06:49",1
7070,5,5,5,5,3,4.6,"????? ????? ??? ????? ????? ",1,194.79.103.51,"2017-09-13 09:13:58",1
1840,5,5,5,5,5,5.0,"????? ????? ??? ???? ????? ??? ??????",1,196.149.247.135,"2017-09-13 10:14:54",1
6383,5,,,,,1.0," ???? ?????? ?? ??????? ?????? ????? ????????? ???????? ???? ???? ??? ???  \\ ??? ?????",1,156.210.116.31,"2017-09-13 10:15:16",1
2407,5,3,5,5,4,4.4," ????? ???? ??????",1,41.235.83.79,"2017-09-13 10:38:14",1
